1
1
1
1
1
1
1
1
1
1
1
1
1
1
1
1
1
1
1
1
1
1
1
1
1
1
1
1
1
1
1
1
1
1
1
393983
1
393983
1
393983
1
393983
1
1
393983
1
1
393983
76650
393983
1
76650
76650
393983
1
393983
76650
298888
1
1
67050
393983
76650
76650
298888
393983
393983
67050
713641
1
393983
76650
298888
67050
713641
644402
76650
298888
393983
130943
566602
713641
67050
130943
76650
298888
130943
644402
76650
644402
298888
67050
583894
67050
393983
177462
644402
130943
1
393983
713641
713641
393983
298888
67050
177462
973324
566602
713641
67050
644402
644402
644402
130943
177462
393983
863787
62300
329755
583894
62300
713641
583894
443626
76650
62300
443626
329755
233572
67050
713641
76650
62300
583894
62300
177462
130943
1
76650
130943
393983
67050
863787
863787
904536
208185
163033
177462
62300
566602
713641
130943
973324
713641
863787
566602
76650
713641
713641
393983
393983
973324
904536
393983
329755
443626
644402
644402
130943
393983
177462
583894
973324
163033
163033
130943
76650
713641
208185
743481
163033
329755
329755
329755
566602
566602
177462
208185
233572
208185
973324
163033
76650
583894
713641
644402
177462
208185
76650
62300
208185
130943
233572
130943
208185
62300
163033
973324
973324
973324
973324
191737
177462
720738
329755
583894
583894
443626
228312
130943
720738
904536
644402
44102
62300
76650
329755
67050
177462
644402
298888
393983
233572
177462
62300
191737
900424
62300
667066
900424
208185
67050
329755
713641
636460
877727
298888
903597
233572
393983
208185
644402
67050
583894
298888
846186
62300
743481
329755
713641
973324
667066
130943
644402
583894
990867
713641
720738
203941
298888
177462
228312
329755
863787
1
900424
203941
208185
990867
583894
846186
720738
690741
208185
298888
62300
1
904536
76650
233572
1
713641
877727
667066
583894
846186
583894
667066
163033
177462
443626
743481
906837
208185
67050
408014
60722
408014
130943
329755
89644
267811
62300
177462
998806
329755
1
443626
89644
903597
228312
67050
973324
60722
44102
720738
44102
636460
917525
298888
743481
900424
44102
903597
298888
44102
191737
1
690741
566602
973324
393983
228312
228312
267811
636460
203941
191737
228312
690741
863787
906837
203941
743481
904536
906837
713641
177462
208185
44102
393983
900424
846186
904536
443626
583894
408014
667066
917525
191737
720738
62300
644402
67050
917525
44102
998806
60722
267811
76650
917525
743481
191737
191737
32655
856528
973324
329755
877727
191737
903597
191737
228312
60722
973324
856528
67050
917525
177462
329755
32655
900424
393983
904536
130943
177462
62300
583894
198309
76650
393983
233572
458162
233572
1
228312
393983
906837
329755
67050
636460
917525
408014
583894
667066
408014
458162
856528
846186
583894
900424
130943
743481
458162
233572
20292
1
900424
566602
76650
191737
690741
973324
644402
208185
67050
508952
877727
458162
990867
329755
62300
207480
519763
900424
130943
856528
177462
130943
44102
856528
358575
163033
329755
207480
822911
89644
258598
20292
690741
130943
208185
62300
1
173311
298888
743481
720738
62300
304022
60722
177462
198309
566602
393983
566602
443626
304022
906837
906837
644402
358575
304022
990867
443626
190028
904536
822911
167289
443626
713641
917525
67050
667066
904536
829747
379495
904536
519763
258598
443626
508952
198309
743481
32655
644402
208185
458162
998806
167289
76650
208185
379495
458162
508952
191737
62300
903597
917525
267811
228312
298888
856528
644402
393983
228312
903597
393983
690741
208185
393983
67050
228312
233572
228312
62300
971608
44102
713641
917525
62300
720738
519763
720738
167289
304022
720738
20292
789458
44102
583894
822911
368938
89644
973324
198309
863787
267811
775793
906837
393983
904536
3317
690741
443626
667066
973324
566602
822911
173311
329755
392628
797297
917525
358575
877727
971608
877727
208185
173311
267811
130943
191737
637771
267811
973324
508952
971608
904536
3317
917525
258598
789458
906837
329755
917525
408014
443905
379495
32655
887768
900424
877727
667066
636460
903597
408014
298888
145229
379495
566602
990867
443626
203941
233572
358575
846186
233572
887768
379495
443905
393983
856528
173311
822911
10881
89644
462895
304022
198309
903597
177462
10881
443905
298888
44102
3317
906837
233572
583894
458162
379495
887768
900424
329755
887768
667066
62300
233572
443626
822911
863787
713641
89644
173311
89644
163033
986209
275880
971608
904536
863787
781893
177462
20292
644892
998806
166401
797297
207480
393983
173311
379495
443626
76650
203941
207480
173311
62300
775793
67050
846186
781893
917525
667066
986027
735283
67050
986209
267811
566602
904536
173311
163033
644402
572805
258598
900424
462895
190028
76650
877727
887768
1
775793
583894
903597
443626
797297
877727
67050
519763
906837
163033
145229
775793
856528
636460
720738
990867
917170
690741
298888
304022
208185
644402
443626
1
166401
690741
76650
329755
190028
163033
76650
191737
167289
177462
32655
166401
789458
3317
258598
358575
829747
44102
267811
863787
392628
829747
228312
207480
829747
904536
462895
846186
988362
986027
458162
973324
304022
62300
1
990867
643801
3317
166401
946378
32655
44102
163033
904536
393983
44102
815234
856528
14679
163033
544656
971608
145229
690741
544656
829747
76650
508952
637771
720929
193348
298888
690741
644892
177462
173311
544656
846186
583894
508952
203941
10881
743481
89644
902247
167289
67050
392628
458162
443626
998806
583894
877727
743481
508952
177462
20292
1
904536
392628
971608
743481
443626
508952
89644
508952
275880
566602
198309
815234
566602
906837
720929
572805
260691
877727
636460
298888
877727
393983
508952
136744
14679
443626
44102
73274
233572
923342
67050
258598
781893
298888
846186
737586
304022
60722
443626
797297
62300
358575
856528
443626
44102
775793
358575
190028
917170
260691
280173
743481
73274
923342
797297
877727
923342
60722
572805
298888
465472
946378
988362
177462
1
208185
9446
145229
877727
561622
644892
789458
20292
971091
171836
789458
544656
547841
781893
20292
393983
187493
971091
829747
2624
317468
208185
191737
519763
990867
644402
3317
177462
275880
743481
171836
73274
356070
173311
228312
990867
667066
443905
998806
3317
797297
191737
356070
903597
971608
258598
443905
737586
89644
358575
304022
416222
14679
163033
946378
636460
73274
203941
163033
902247
644402
364548
519763
62300
815234
168245
902247
89644
78559
207480
198309
403175
166401
203941
656795
971091
863787
462895
508952
163033
392628
508952
207480
304022
583894
903597
743481
168245
177462
130943
3317
167289
923342
988362
304022
207480
781893
317468
393983
496321
168245
171836
971608
203941
737586
877727
496321
561622
187493
917525
519763
525142
44102
267151
846186
900424
656795
263135
416222
458162
267811
193348
789458
323818
644402
275880
971091
393983
208185
78559
443905
392628
145229
163033
166401
20292
364548
781893
544656
168245
547841
364548
544656
856528
465472
923728
171836
658079
877727
247212
443905
76650
207480
260691
465472
887768
171964
923342
177462
561622
208185
136744
130943
775793
62299
902247
923728
416222
14679
20292
193348
304022
228312
260691
323818
690741
280173
275880
198309
280173
971091
136744
167289
247212
140378
62300
986027
815234
829747
280173
637771
356070
443905
917525
658079
247212
10881
400345
168245
735283
166401
2624
62300
986027
14679
443905
988362
998806
73274
168245
998806
177462
62299
973324
10881
163033
191737
1
717504
743481
547841
145229
906837
781893
917525
887768
166401
623893
713641
208185
379495
458162
547841
829747
917525
136744
140378
583894
946378
379495
323818
267811
400345
563977
14679
267811
496321
591720
887768
89644
191737
145229
971091
191737
946378
423424
364548
329755
10881
566602
131018
364548
275880
863787
280173
717504
131018
637771
856528
260691
990867
856528
167289
67050
619242
973324
463201
877727
591720
140378
193348
636460
298888
369720
103583
364548
887768
465472
619242
903597
173311
918900
140378
2624
198309
208185
690741
547841
171836
519763
846186
856528
986027
163033
508952
636460
400345
815234
636460
822911
443905
191737
130943
623893
623893
986027
193348
902247
988362
364548
323818
393983
9446
62299
917170
636460
358575
856528
190028
171836
877727
880894
544656
207760
583894
637771
797297
713641
379495
658079
131018
14733
720738
400345
323818
177462
44102
667066
822911
623893
228312
547841
207480
392628
863787
208185
443626
988362
173311
717504
856528
971608
496321
73274
233572
462895
408014
168245
193348
171836
990867
923728
263135
572805
906837
971608
247212
171964
208185
369720
613554
764524
358575
163033
906837
797297
62299
720929
737586
465472
145229
228312
228312
856528
62299
339812
496321
171836
76650
566602
379495
62299
130943
89644
720929
280173
403175
923728
831175
443626
9446
781893
589942
423424
591720
168245
900424
62300
358575
988362
754510
831175
583894
166401
177462
260691
356070
334446
228312
613554
263135
637771
992449
519763
9446
918900
275880
583894
10881
364548
364548
998806
32655
103583
720929
339812
358575
198309
218251
508952
368938
717504
990867
591720
637771
443905
822911
566602
280173
856528
341046
267811
684729
140378
203941
103583
988362
781893
992449
258598
563977
136744
1
877063
528273
207480
443905
727252
822911
831175
720738
528273
443905
544656
182385
136744
76650
627754
566602
304022
547841
549983
973324
992449
182385
902247
684729
171964
816191
443905
267151
713641
463201
208185
613554
918900
443905
496321
263135
379495
727252
492391
2624
727252
986209
880894
725396
190028
190028
403175
567007
140378
207480
275880
903597
304022
258598
96080
207760
492391
392628
986209
258598
393983
873060
364548
902247
822911
658079
443905
458162
339812
233572
341046
492391
463201
208185
329755
986209
880084
1
971091
354753
781893
764524
67050
815234
341046
990867
764524
690741
329755
737586
463201
364548
887768
103583
619242
67050
822911
463201
971608
267151
76650
198309
902247
644402
10881
887768
904536
9446
998806
831175
208185
145229
904536
917525
280173
900424
14679
566602
394560
334446
255028
393983
329755
171964
356070
684729
267811
208185
636460
547841
443626
168245
561622
400345
702806
32655
255028
720738
667066
887768
263135
171836
168245
207480
917170
267151
923728
644892
298888
829741
797297
717504
877727
187493
900424
78559
986209
797297
713630
588568
684729
423424
14733
986209
589942
411308
956440
887768
458162
171836
901308
167289
393983
583894
717504
567007
720929
9446
182385
917170
880084
901308
263135
198309
971091
630812
275880
89644
619242
368938
130943
900424
244198
861537
408014
992449
528273
589942
411308
988362
797297
656795
658079
525142
1
173311
923728
381060
140378
358575
140378
62300
379495
136744
904536
190028
171964
602033
588861
443905
880894
207480
990867
177462
561622
215270
354753
815234
877063
14733
394450
168245
9446
258598
667066
797297
877727
914587
356070
743481
431859
317468
62300
923728
60722
880894
191737
203941
644402
108956
901308
463201
797925
589942
298888
318059
108956
684729
280173
901308
267151
228312
356070
381060
735283
772109
986027
171836
735283
922887
103583
163033
298888
171836
60722
60722
753781
737586
567007
403175
986209
563977
73274
713630
588861
193348
829741
646154
171964
946378
136744
356070
263135
720738
986209
822911
2624
613554
917170
318059
636460
829741
727252
263545
408014
500987
856528
887768
1
207480
368938
173311
956440
14679
815234
207760
906837
613554
637771
431859
458162
613554
168245
403175
747237
233572
105624
370146
103583
877727
658079
775793
198309
880894
877063
347555
341046
781893
166401
76650
628668
368938
171964
10881
667066
829747
923728
923400
630812
171964
203941
465472
334446
329755
403175
168245
508952
651301
651301
754510
822911
247212
923728
10881
690741
998806
341046
877063
658079
992449
815234
713641
713641
247212
260691
667066
347555
781893
136744
667066
203941
62300
628668
228312
171964
637771
643801
988362
462895
561622
861537
822730
191737
48607
293839
45449
334446
105624
393983
990867
393983
923728
411308
623893
62299
713641
140378
267151
589942
368938
588861
906837
492391
263545
656795
292086
207760
358575
462895
233572
358575
588568
525142
735283
887768
370146
171836
998806
255028
173311
140378
263545
62300
317468
96080
727252
215270
293839
746261
462895
904201
368938
519763
347555
32655
492391
198309
973324
904536
628668
443626
2624
339812
78559
713641
267811
465472
44102
182385
998806
356070
67050
394450
215270
646154
797925
198309
856528
822911
193348
528273
537775
719198
156993
971608
313455
547841
737586
171964
416222
275880
713641
394560
658079
267811
239434
503146
394560
275880
334446
392628
347555
971091
720929
496321
998806
986027
656795
394450
856528
719198
368938
381060
992449
258598
218251
503146
717504
166401
254876
918900
89644
298888
96080
329755
9446
339812
923342
458162
932949
956440
971608
463201
379495
393983
136744
208185
2624
423573
368938
713630
525142
400345
735283
400345
145840
329755
67050
347555
303465
902247
1
319418
131018
986027
319418
130943
233572
918900
136744
379495
267811
588861
651301
839244
356070
337492
136744
547841
797297
903128
619242
329755
431859
443626
863787
393983
313455
275880
329755
339812
690741
720929
561622
223217
44102
402131
904201
839244
651301
684729
108956
267811
547841
369720
727252
591720
831175
789458
260691
339812
519763
656795
816191
318237
567007
628668
583894
720929
187493
720929
125732
903128
690741
829747
228312
822730
323818
167289
713641
856528
667066
644892
971091
743481
267151
229409
416222
62299
903597
519763
344162
394560
537775
318237
572805
904877
156993
988362
932949
255028
873060
720929
637771
292086
713641
709891
627754
431859
431859
392628
822911
636460
619242
67050
720929
408014
831175
156993
902247
772109
223217
443905
403175
32655
207480
319418
263545
233572
167289
303465
458162
619242
32655
368938
411308
923728
591720
971608
986027
735283
298888
901308
772109
903128
880894
496321
11951
292086
735283
48607
547841
998806
829747
319418
100894
394450
48607
96080
244198
589942
42047
572805
797297
14733
228312
816191
219046
713641
932949
223217
572805
267811
992449
228312
292086
829741
402131
329755
628668
96080
166401
171964
503146
589942
508952
115456
902247
14679
990867
67050
500987
1
292086
846186
462895
1
263135
105624
923728
923342
136744
67050
797297
822730
318237
990867
136744
525142
14733
171836
727252
32655
408014
329755
789458
904536
563977
880461
644402
229409
275880
990867
11951
67050
561622
667066
973324
369720
500987
903597
922887
62300
561622
62300
62300
14733
917525
903597
567007
525142
317468
337492
880461
772109
747237
14733
358575
563977
709891
690741
903128
747237
536659
644402
73274
379495
986027
658079
423424
904536
405978
14679
370146
400345
3317
904877
658079
817248
563977
254876
239434
462895
720929
191737
717504
392628
973324
591720
651301
822730
317468
443626
644402
443905
986209
829747
303465
10881
781893
973324
76650
130943
3317
717504
423573
267811
244198
20292
713630
503146
254876
2624
255028
166401
27679
381060
334446
651301
190028
536659
655634
643801
831175
655634
463201
218251
719198
525142
903128
62300
27679
932949
904201
636460
620303
528273
260691
717504
103583
536659
130943
10881
789458
536659
831175
735283
394450
20292
115456
990867
643801
323818
136957
917170
317468
368938
292086
986209
916637
644402
923342
171836
998806
392628
644892
956440
423424
626598
329755
354753
567007
393983
2624
370146
863787
408014
685213
173311
9446
207760
797297
74111
423573
525142
364548
923400
304022
255028
856528
411308
244198
667066
880461
60184
900424
191737
619242
519763
292086
14733
105624
880894
431859
567007
764524
561622
400345
545223
161936
904201
713641
267811
992449
588861
646154
405978
280173
9446
394450
537775
76650
667575
177462
317468
992449
292086
44102
182385
219046
903597
443905
140378
317468
561622
713641
925352
735283
904536
394560
233572
839244
67050
76650
602033
923342
797297
667066
339812
138533
182385
684729
561622
193348
258598
255028
27679
630812
720929
974436
203941
14733
729498
817248
103583
880461
2624
32655
42047
998806
623893
880894
403175
108956
317468
219046
713641
880461
292086
644892
323818
228312
646154
163033
258598
136957
717504
392628
254876
914587
503146
521157
829741
729498
244198
303465
904201
735283
423424
344162
923342
105624
690741
932949
782979
60722
177462
566602
73274
463201
125732
354753
737586
904536
323818
73274
145229
900424
829741
339812
136957
861537
394450
503146
293839
304022
339812
42047
903654
2624
764524
658796
902247
220415
720929
503146
743481
76650
973324
746261
379495
293839
220415
561622
986209
173311
344162
317468
60722
727252
229409
880084
508952
656795
52772
525142
27465
198309
27465
873060
846186
62299
166401
292086
193348
334446
805802
191737
42047
658079
44102
880084
313455
318059
411308
986027
946378
298888
623893
131018
747237
2624
356070
946378
644402
295742
727252
76650
646154
193435
906837
48607
317468
626598
816191
394450
403175
400345
462236
295742
623412
492391
171836
115456
341046
27679
347555
817248
627754
801878
313455
60184
167289
503146
163033
815234
729498
275880
78559
971262
341046
922887
658079
166401
344162
566602
922887
544656
11951
318059
747237
805802
713630
781893
177462
292086
656795
880894
370146
356053
215270
190028
709891
368938
743481
48607
986209
877727
105624
334446
145935
203686
823864
283690
163033
62299
408014
244198
667066
247212
190028
583894
822911
458162
877727
567007
887768
364548
379495
458162
646154
408014
588568
626598
971262
630812
145840
746261
405978
880084
702806
521157
115456
171964
193348
971091
566602
482661
220415
223217
125732
971091
549983
187493
44102
815234
973324
191737
156955
917525
134382
932949
797297
32655
105624
536659
329755
403175
903128
482661
369720
337492
1
42047
168245
869473
903128
684729
636460
903128
163033
368938
145840
583894
402131
280173
218251
815234
462895
228312
658796
73274
667575
637771
628668
323818
191737
247212
494886
823864
667575
443626
643801
492391
735283
304022
619242
100894
193435
690741
797925
408014
544656
817248
254876
405978
877727
956440
823864
60722
513706
823864
369720
588568
839244
839244
173311
980603
932949
193435
725396
368938
403175
737586
746261
313455
561622
218251
393983
423424
775793
74111
2624
441070
334446
720738
644892
658796
201361
709891
125732
463201
525142
971262
263545
588568
223217
685213
496321
522043
400345
588861
923342
901308
764524
334446
408014
496321
368938
873060
207760
596731
1
394450
223217
78559
56187
408014
202303
717504
969640
869473
816191
56187
743481
727252
458162
32655
89644
359089
651301
906837
229409
932949
182385
627754
193348
207480
589942
46648
145935
971091
544656
208185
917170
656414
903597
52772
922887
125732
394450
646154
368938
2624
463201
136744
441581
359089
630812
163033
880461
746261
353062
105624
627754
829741
381060
916637
423573
801878
73274
250489
20292
816191
596731
831175
877727
423573
370146
400345
134382
400345
14679
60184
716034
869473
341046
263545
105624
602033
215270
772109
588861
630812
356053
359089
956440
642054
405978
971262
193348
223217
760652
293839
201361
902247
198309
743481
32655
971091
569222
732438
781893
370146
623893
166401
588861
591720
368938
956440
833223
626598
168245
904877
341046
400345
667066
220415
781893
458162
775793
494886
394450
167289
753781
900424
182385
829747
27679
293839
67050
14733
667066
441581
602033
923342
131018
646154
323818
115456
747237
877063
280173
537775
14733
914587
10881
46648
861537
62299
569222
858014
651301
925352
328444
717504
492391
644892
255028
946199
713630
431859
136957
443905
173161
193435
891945
760652
873060
903128
606795
729498
545223
218251
923728
566602
513706
537775
816191
441581
709891
42047
528273
463201
815795
267151
42047
644892
685213
760652
494886
277530
173311
626354
187493
458162
588568
219046
329755
115456
441581
182385
303465
52772
173311
667066
323818
295742
10881
869473
591720
317468
923728
589942
207760
846186
782979
901308
56187
254876
443626
658079
917170
255028
846186
344162
877727
833223
46648
971091
255028
328444
513706
161936
156955
782979
563977
145840
877063
161936
986027
275880
925352
956440
14679
198309
303465
917525
1
441581
906837
656795
400345
500987
115456
644892
904201
735283
566602
9446
904536
393983
201361
682238
644892
856528
368938
381060
682238
393983
255028
904877
468171
175745
144622
877063
971608
74111
880461
900424
588861
156993
318059
400345
628668
187493
969640
130943
177462
443626
772109
368938
880084
863787
861537
224299
220415
693727
839244
877063
816191
521157
156993
636460
805802
105624
14733
131018
971608
829747
627754
545223
381060
623412
869473
298888
255028
971091
344162
156993
379495
403175
873060
267811
105624
740746
171836
923400
161234
89644
623412
747237
260691
760652
207760
329755
561622
201361
986027
547841
904877
62299
880084
370146
223217
925352
191737
628668
359089
702806
588861
443905
816191
545223
547841
772187
636460
611878
589942
347555
693727
431859
685213
263545
642054
207760
969640
10881
11951
443626
545223
643801
924592
720738
946199
224299
187493
208185
275880
856528
74111
263135
619242
103583
869473
589942
250489
702806
682238
279283
203941
658079
74111
844051
48607
2624
34958
753781
156955
914587
307378
358575
719198
145229
239434
329755
918900
220415
161234
1
344162
719198
185979
140378
207480
856528
177462
213603
356070
463201
924592
906837
394450
623893
828756
402131
716034
431859
74111
381060
130943
904877
115456
247212
293839
690741
283690
693727
887768
566602
880894
823864
626354
887768
973324
822730
917525
891945
356053
682238
203941
260691
388837
547841
423573
797297
458162
9446
876863
356053
829741
130943
177462
347555
224299
713641
986209
393983
431859
829747
537845
626354
903128
267811
441070
462895
136744
88709
602033
136957
628668
971608
536659
364548
709891
462236
719198
829741
255028
541466
901308
831175
831175
829747
388837
781893
171964
323818
990867
887768
88709
279283
906837
578438
901308
78559
27679
292086
690741
173311
528273
46648
53661
583894
88709
545223
772109
521157
364548
392628
173161
904536
1
202303
105624
431859
816191
900424
423424
53230
772187
145935
423424
27465
760652
684729
583894
904201
193435
904201
136957
956440
861537
611878
877727
904201
858014
829747
138533
161234
500987
797925
244331
52772
782979
986209
307378
339812
646154
615268
328444
643801
566602
207480
405978
60722
3317
903128
805802
717504
848866
663007
772109
712671
118216
443905
3317
260691
863787
337492
545223
250489
381060
500987
547841
925352
392628
655634
202303
522043
923342
318059
133263
34958
263545
260691
304022
105624
866432
880894
876863
880461
713630
914587
220415
116378
105624
873060
772632
583894
14679
781893
193348
877063
182385
656795
949073
623412
358575
567007
48607
441070
145935
663007
156955
623893
588861
1
788608
339812
341046
946199
713630
637771
840047
866432
44102
328444
204879
667575
239434
442017
138533
138533
442017
11951
56187
789458
589942
561622
522043
823864
986209
500987
717504
207760
187493
78559
465472
627754
465472
193348
161234
922887
658796
190028
279283
442017
171964
280173
877063
669297
219046
620303
772632
48607
583894
904536
400345
917525
764524
549983
916637
357404
828756
106511
392628
457149
228312
403175
572805
3183
974436
863787
588861
957866
537775
99325
318059
53230
547957
405978
193435
166401
76650
644892
887768
549983
712671
208185
462236
684729
173161
973324
720738
637771
402131
353062
646154
394450
521157
924592
267811
165080
856528
713630
136957
368938
737586
10881
379495
388837
606795
760652
924592
171836
207480
359089
626354
277530
457149
468171
275880
443905
175745
394560
2624
165080
797925
628668
191737
258598
415388
145840
880084
684947
667066
53661
713630
747237
62299
131018
258197
781893
622489
588568
442017
900424
949073
725396
684947
651301
619242
468171
405978
591720
824270
411308
626598
986209
145229
669297
588568
902247
173161
817248
717504
27465
463201
922887
255759
508952
394450
654432
94132
663007
654432
986209
626354
684947
957866
815795
566602
27679
219046
772187
710088
193435
292086
309437
353062
405978
536659
876863
161936
163033
298888
578438
45449
831175
906837
74111
244198
969640
637771
267151
833223
223217
604473
219046
698419
547957
831175
698419
52772
663007
880461
642054
34958
900424
851260
566602
654432
743481
971262
161234
725396
193435
60722
60722
114016
971262
329755
462236
344162
411308
760652
219046
96080
627754
566602
423573
903597
622489
2624
537775
165080
741797
138533
877063
880084
627754
263545
17132
190028
988793
861537
626354
628668
101134
746261
846186
636460
166401
637771
642054
906837
32655
572805
628668
829741
626598
250489
956440
32655
323950
393983
462895
218251
116378
400345
190040
347555
54845
328444
743481
740746
797297
775793
443905
904877
250489
313455
136744
839244
528273
741797
276390
260691
844051
729498
858014
797925
566602
754510
747237
544656
903654
1
641491
317468
569222
984154
990867
805802
263545
44463
202303
54845
156955
191737
187493
626354
725396
572805
191737
815795
156993
27465
14679
280979
566602
789458
887768
846186
207760
170293
402131
463201
856528
789458
217660
203941
292086
325300
392628
394815
817248
233572
96080
858014
628668
379495
78559
168245
67050
191737
822730
255759
508952
606795
547957
108956
416222
198309
298888
861537
233572
136957
530947
613554
817248
228312
220415
244331
956440
824270
636460
667575
861537
267811
537845
258197
175745
772109
78559
630812
133263
646154
388837
356053
303465
53230
797297
877063
980603
917170
392628
462236
325300
973324
62299
788608
622489
583894
347147
887768
848866
267811
217660
916637
903128
190040
651301
710088
156955
719198
536659
32655
203941
986027
341046
283342
168245
423424
608102
318059
503146
969917
658796
309437
541466
283690
145229
42047
163033
20292
27679
969640
604473
500987
134382
746261
974436
969640
96080
831435
801878
547957
519763
267151
173161
904201
713641
623942
914587
52772
740746
764524
198309
858014
528273
572805
185979
388837
347147
490914
623412
163033
114358
712671
125732
239434
741797
318237
356070
125732
887768
76650
596731
636460
323818
107098
63510
753781
313455
60722
74111
443905
173311
283690
208185
877063
457149
114677
656414
56187
204879
165080
63510
971608
258197
636460
255028
690741
901308
667066
130943
561622
244198
78559
307378
642054
191737
203686
358575
195110
720929
14679
263545
323818
519763
88709
309437
319418
536659
596731
974436
441070
651301
379495
323950
89644
292086
334446
255759
658079
408014
684729
134382
255759
359089
379845
229409
431859
341046
167289
971608
145229
381060
772187
339812
656795
902247
971262
588861
839244
193435
636460
880461
828756
223217
103583
988362
103583
170293
637771
623942
228312
130943
394450
217660
623412
519763
379845
602033
263545
779697
503146
508952
405978
817248
606795
737586
561622
62300
925352
144622
606795
213603
347555
400345
171836
988793
923400
861537
637771
985839
567007
34958
782979
839244
900424
106511
303465
215270
713630
984154
116378
228312
465472
863787
723761
154949
571460
116378
713630
822730
394560
772187
833223
824270
596731
247212
328444
275880
11951
636460
620303
494886
788674
482661
255759
203941
782979
298888
53661
561622
107098
3183
379845
99516
844051
684729
168245
537775
630389
500987
56187
280173
654432
161936
969917
369720
145840
17132
863787
370146
642054
101134
173311
572805
729498
317468
254876
828756
182385
155194
626598
195110
369720
403175
457149
313455
658796
720929
555012
94132
563977
339812
283342
62300
530947
737586
105624
130943
457149
974436
589942
359089
988362
457149
630389
717504
873060
988793
984154
903128
684729
591720
596731
623412
99325
466343
805802
918900
630389
170293
985839
496321
764524
831435
173161
56187
873060
627754
46648
3317
611878
14733
537775
317468
760652
567007
163033
903128
494886
623412
115000
213603
154949
171964
207760
76650
193348
504638
255759
316333
250489
626598
521157
165080
168245
719198
656414
171836
916637
998806
34958
924592
402131
44463
537845
588861
740746
971608
858014
145229
67050
789458
651301
329755
620303
263135
986027
347147
630812
684729
720929
115456
130943
628668
863787
623893
10881
490914
208185
634241
280979
244331
156562
601690
133263
620303
381060
714583
280173
835391
463394
797925
60184
848866
720738
656795
924592
78559
323950
53661
630389
468171
115000
494886
851260
824270
646154
516495
764524
168245
402131
354753
641491
663007
840047
735283
904877
566602
198309
641491
588568
106511
393983
844051
628668
866432
923728
173161
867099
14679
443626
280173
903128
622489
392628
199814
220415
415388
620587
848866
974436
254876
536659
280979
341046
73274
118216
556478
463201
44102
42047
457149
922887
764524
185979
145840
880461
619242
114677
641491
44463
608102
368938
465472
508952
405978
18166
32655
655621
508952
566602
260691
293839
73274
283342
764524
923342
175745
443626
503146
136744
171836
115000
923342
571460
156955
317468
866432
11951
917525
11136
985839
578438
549983
27465
563977
193435
118216
370146
719198
89644
394450
293839
537775
171836
44102
341046
393318
880894
658079
500987
118216
723716
788674
457149
423573
682238
207480
45449
379845
319418
357404
56187
203686
412534
719198
74558
914587
588568
656795
984154
942224
341279
9446
277530
739961
115000
359089
828756
822730
46648
199814
185979
772187
131669
946199
130489
510721
156562
969640
828756
388837
467558
797925
608102
620303
131669
545223
185924
630389
163033
544656
207760
654432
615359
199814
528273
74111
823864
210105
341046
45449
125732
267811
14679
658796
379845
423424
347555
916295
263135
187493
732438
924592
317468
443905
985839
63510
134382
18166
374907
392189
156993
244331
556478
956440
250489
263545
420227
255759
746261
969640
171964
725396
690741
62300
1
732438
131669
982619
667066
723716
27465
356070
601690
307378
276390
323818
341279
54845
211523
510721
29718
280979
713641
949073
29718
720738
828193
73274
218251
547957
840047
466343
939387
292086
307378
519763
379845
286755
403175
829741
851260
29718
415388
544656
166401
106511
29718
339812
747237
924592
822730
596731
379845
782979
723716
925352
466343
357404
163033
829741
732438
369720
356053
904877
492391
325627
689332
619242
702838
145840
976667
824270
208185
356070
903654
241048
636460
198309
411308
924592
115456
973324
317468
298888
27465
571460
292086
144622
971091
658796
416222
971091
685213
175745
241048
356053
863787
347147
651975
985839
130943
946378
651301
193348
867099
125732
643801
177462
303465
156562
402131
115000
10881
114358
381060
969640
702806
11136
313049
643801
329755
805802
341279
277530
255759
171836
344162
619242
923400
866432
275880
467558
329755
627754
359089
939387
9446
583894
822911
392189
663007
154949
108956
211523
643801
623412
145840
60722
900424
359089
973324
316333
986027
877727
388837
863787
420227
224299
339812
18166
824887
536659
328444
145840
628668
880894
210856
853312
103583
636460
247212
510721
88709
589942
848866
626354
817248
630389
60722
924592
267151
453557
903597
224299
67050
689332
916637
513706
900424
998806
145840
516495
741797
29718
747237
255759
918900
815234
971608
400345
347147
73274
32655
313049
56187
203686
956440
877063
443905
211523
528273
702806
67050
861537
199814
519763
307378
602033
101134
400345
303465
682238
732438
107098
250489
3317
922887
682238
173166
173161
753781
359089
990867
379495
880461
946378
667575
992449
74111
494886
522043
986209
916637
393318
170293
900424
608102
831175
746261
739961
541466
588861
347555
851507
495928
876863
720738
856528
161234
458162
863787
48607
2624
651301
244198
62299
902247
578438
10881
620303
781893
530947
805802
775793
408014
1570
867099
292086
400345
423424
298888
729498
347147
531141
566602
563977
844051
504638
239434
99485
789458
125732
14803
735283
239434
358575
187493
42047
716034
902247
851260
531141
824270
275880
992449
283342
937084
788608
20292
782979
988793
255028
942224
957866
2624
591720
233572
131669
536659
720929
804614
753781
403175
108956
99325
503146
765178
283342
247212
3317
277530
307378
727783
916637
62300
550404
939387
203686
62300
394450
969213
3317
969917
458162
973324
211523
276390
217660
634241
516495
210105
986027
244198
283690
94132
20292
453557
636460
411308
404811
62300
171836
339812
277530
797925
746261
739961
303465
513706
547841
877063
971091
462236
805802
903654
815234
131018
541466
3317
344162
53661
78559
347147
803814
541466
569222
369720
185924
623412
443905
932949
723716
420227
215175
713641
199814
65635
411308
131018
611743
740746
667066
620303
541466
620587
145840
464712
772632
492391
937084
740746
339812
891945
32655
651975
495928
914587
632242
118216
801878
982836
822730
14679
500987
723716
689332
60722
392189
423573
258598
394560
267811
393983
601690
848866
514852
917525
911642
747237
542425
982619
844051
877727
620303
423573
513706
822911
405978
207589
44463
547957
761330
817248
34958
116378
420227
918900
772109
824270
323818
602033
911642
166401
213603
904201
163033
766003
609525
309437
11061
73274
966140
606795
550404
957866
78559
462895
816191
937084
63510
405978
14803
856528
609525
712671
146338
640827
357404
634241
978562
569222
880461
131018
11136
641491
254876
65635
138533
880191
320724
145840
702806
761330
247212
971608
78559
623893
637771
789458
494886
295742
334446
203686
280173
130489
442017
74558
743481
27465
655634
876863
10881
519763
561622
765178
368938
44463
62299
60184
726337
924592
216167
901240
880894
54845
280979
369720
591720
416222
877063
18166
528273
394450
615359
393318
982836
263545
667066
334446
468171
293962
217660
379495
215175
667066
510721
723761
891945
400514
131669
402950
279283
772109
108956
34049
201381
923728
613554
544391
957866
313049
569222
772187
848866
341418
201381
651301
496321
187493
374907
298888
627754
829741
259584
131018
379495
986027
210856
980603
103583
25836
608102
492391
588861
980603
144622
775793
969640
603670
364548
295742
341279
347147
630812
655621
726337
930903
374475
14803
207589
710088
178970
44463
14679
379495
328444
304022
503146
824887
96080
788674
603919
788608
969917
902247
840047
1570
492391
337492
720738
844051
277530
318237
323818
974436
260691
319418
982836
45449
67050
136957
138533
601690
54845
998806
163033
325627
880894
145840
182385
175745
167289
27679
56187
496321
923400
392628
167289
823864
828193
499947
513706
545223
185924
286755
442017
604473
797297
603919
210105
753781
596731
434158
462236
645294
844051
328444
52772
956440
887768
656795
902247
901240
964010
14679
891945
279283
835391
569222
690741
369720
980603
101134
817801
667448
45449
698419
74101
434158
115456
56187
773553
286755
392628
173161
42047
229409
690741
63510
702806
713630
339812
260691
198309
754510
547957
400514
20292
921707
923400
449851
374475
833223
14803
588861
340713
258197
656795
146338
642054
916637
2624
301640
404811
828285
735283
510866
88709
976667
374907
208185
171964
626659
22988
199814
645294
971262
975878
441581
547957
14803
73274
549983
403175
530947
313049
969640
136957
89644
713630
504638
356070
801878
27465
644892
408014
224299
866915
463201
185924
643801
114358
215270
420020
313455
490914
974436
328444
804614
107098
247995
980603
880461
255028
723716
171836
89644
408014
863787
423573
63510
522043
667448
20292
10881
241048
465472
876863
822730
984154
521157
144622
591720
145935
445796
400514
973324
74111
644402
185924
760652
420227
341046
606795
334446
851260
118216
323950
971262
173311
516495
341418
709891
942376
873060
283342
611743
737586
166401
344162
829741
636404
431859
839244
20292
145935
187493
627754
267811
655621
772187
746035
423087
449851
466343
207480
846186
835391
620303
27465
400345
1570
161234
923400
542425
804614
102017
394450
903654
280979
74558
499947
885161
107098
556478
250489
726337
267811
789458
904201
359089
599967
88709
646154
824270
202303
651975
484854
655634
381060
356070
17132
880894
831175
508952
533659
828285
3086
3086
96080
445796
32655
761330
456621
1570
720929
918900
663007
578438
561622
207760
626354
280173
829747
547841
990867
917170
213603
781117
588568
609525
130489
816191
753781
545223
741797
553356
669297
645294
693727
663007
309437
880191
711500
201361
275880
858014
3183
456621
553356
553356
982619
571460
267811
370621
63510
946378
356070
500987
394815
669297
808161
536659
392189
887768
131018
466343
127687
73274
828285
207480
267151
203686
569222
542425
542425
689728
803814
615359
522551
393983
328444
304022
637771
3317
828285
53230
53230
998806
753781
583894
900424
866915
545223
887768
402950
357404
848866
115000
914587
781117
145935
599967
229409
711500
740746
337492
545223
22988
334446
817801
494886
788674
513706
263135
658796
924592
131669
241048
904201
567007
412534
155194
56187
603919
637771
848866
616097
405978
753781
956971
328444
887902
988793
431859
182385
867099
292086
1
942376
190028
626354
369720
204879
869473
318059
689332
115000
318237
904201
228312
420020
934225
11951
877727
167289
775793
1
283690
156993
402950
732438
177457
286755
94132
651301
937084
980603
956971
982619
741797
636460
228312
569222
60722
729498
611878
11951
824270
89644
313049
844051
712671
441581
270294
902247
145935
599967
60184
900424
466343
102017
195110
986209
684729
168245
666516
516495
175745
156562
914587
603919
537660
880461
162782
171964
603670
325300
632242
942224
293962
60184
725396
329755
779697
655621
988362
44463
684947
547841
267811
636404
130943
632242
976667
513706
858014
27679
402950
283342
655634
73469
609525
130489
22032
603028
636460
115456
408992
828193
876863
869473
626659
78559
161234
622489
667448
207480
702806
63510
712671
318059
408030
867099
851507
247212
746035
492391
456621
500987
601872
772632
616097
182385
22988
114016
379845
717504
465472
685213
797925
547841
870000
204879
482661
654432
866432
903128
844051
286755
528273
828193
937084
52772
601690
788608
53661
988362
423573
904877
208185
978562
514852
467558
400514
880461
495928
403175
623412
99485
713641
880461
411308
801878
806055
840047
280979
115456
533659
528273
971608
556478
374475
341418
729498
187493
202303
553356
566602
403175
27465
971608
317468
656190
727783
685213
48607
423573
772632
942376
136957
462895
17132
911642
303465
737249
644892
669297
901240
655634
163033
280979
415388
62300
14733
60722
775793
443905
14803
822730
9167
930903
992449
623942
556478
61040
723761
900424
270303
492391
32655
735283
116378
604473
556478
684729
702806
74101
949073
146338
626354
549983
247995
815234
490914
144622
402950
187493
823864
223217
866915
318059
210856
603919
900424
628668
891945
903701
603919
102017
456621
105624
804614
107098
644402
808161
563977
714583
569222
906837
45449
505618
846031
982619
903597
636460
831435
779697
544391
805802
178458
400514
746261
861537
728447
760652
10881
482661
667575
131018
601690
930903
3317
166048
466343
873060
293839
73274
880461
99485
14679
948907
370146
442017
547841
34958
611878
402950
877063
831435
63510
702838
74558
83883
11136
698419
881329
689728
588861
641491
880191
863787
685213
510721
603028
116378
408030
353062
203941
636460
341418
969917
62299
806055
656414
339812
218251
822730
804614
939387
339812
114358
22988
3086
307378
737586
831435
641491
285344
9446
743481
347147
442017
27679
667575
431859
247824
136744
74111
210105
921707
971262
107098
946378
806055
822730
589942
572805
739961
716034
966140
99516
642054
611743
208185
923728
465472
154949
978562
392189
651301
17132
528273
877063
839495
100554
307378
644402
223217
233572
34958
27679
728447
247824
337492
166401
588861
651301
293839
797297
861537
173161
27330
615268
56563
737586
320724
948907
946378
293962
54845
115000
522551
870000
443626
201381
423424
658796
641491
358575
636404
530947
877063
195110
420227
167515
510866
411308
651975
626354
918900
193435
415388
140378
423573
358575
828285
816191
370621
658796
341418
833223
500987
663007
211523
939387
549983
726337
53230
615268
441070
260691
601690
723716
616097
177457
571460
44102
74101
260691
323818
191737
750171
824270
14679
463394
445796
867099
861537
634241
106829
829747
484854
408030
863787
880894
839244
831175
247824
208185
14679
808161
323950
530947
932949
667066
900424
323818
930903
99516
325627
698419
459454
20292
141508
190040
56563
321831
60722
869473
56563
643801
56187
402131
145840
99516
739961
917525
805802
156993
96080
772632
599967
270294
684729
951274
216167
244331
323818
211523
441070
423087
630812
602033
457983
934225
229409
76650
256695
356070
177457
765178
34958
173161
370621
725396
823864
130943
835391
178458
441581
175745
101134
549983
193348
56187
611743
131018
22032
823864
973187
321636
3221
207480
46648
325627
740746
550404
904186
171836
537660
716034
358575
926642
121496
822730
213603
65635
689728
917625
177457
719198
870000
561622
258197
94132
412534
815234
27330
863726
463394
178907
688330
105624
741797
403175
60722
134382
125732
969213
710088
636460
347147
466343
902247
293962
198309
772187
191737
971091
370621
763617
228312
969917
543908
971091
957866
103583
567007
971262
202303
114677
61040
904201
571460
118216
914587
3221
347555
337492
845799
356053
923728
263630
464712
690741
207589
303465
20292
267482
32655
651301
54845
510866
992449
924592
992449
782979
911723
851507
611743
3317
141508
185924
973324
459454
136957
735283
456621
394450
623893
499947
824887
698419
280979
840047
525142
130943
17132
880084
108956
924592
998806
254876
808161
136744
114016
402950
773553
667066
602033
344162
280979
985839
969917
494886
280979
9167
788674
667448
603670
922887
313049
18166
145840
295742
982619
611743
656414
3317
337492
901308
545223
381416
353062
727252
145840
318059
211523
168245
917525
774955
151226
215175
329755
519763
932949
873060
358575
559224
191737
335441
11951
620303
547841
215175
203686
108956
1570
187493
393983
937084
969640
61040
957866
801878
67050
216167
547957
316333
292086
903597
76650
500987
988362
63510
720929
394815
96080
634241
917625
161234
178458
457149
210856
839495
829747
772109
846186
381416
765178
856528
684947
640827
145935
151226
370621
684729
402950
746035
415388
735283
887768
412534
239434
788674
643801
971091
690741
917170
904201
247995
442017
313455
914587
615359
808161
926642
313652
726337
247212
140378
238949
11951
645294
453648
108956
62300
658079
347555
374475
207589
369720
161936
829747
761330
293962
682238
911642
537845
220415
851260
957866
828756
978562
727783
858014
975878
347555
280979
533659
374475
125732
902247
303465
27679
204879
924592
73469
218251
313049
31847
939387
415388
101134
487711
385237
923342
393983
241048
533659
408030
601872
903654
3086
840047
185979
656795
78559
615359
596731
215175
67050
797925
462236
198309
544656
702838
583894
318237
31847
904536
325627
374907
760652
29718
753781
393318
723716
170293
320724
829741
951274
490914
131018
341279
170293
887902
690741
60184
442017
2302
34958
22988
623942
866915
990867
519763
510721
971262
505618
298888
808161
34049
739961
930903
603670
626659
720738
712671
556478
693727
916052
29718
615344
714583
583894
144622
969213
130489
946705
171964
156993
238949
913985
956440
62300
198309
107098
657058
713641
328444
903128
99485
99485
644892
125732
900424
283342
901308
62299
34049
788919
78559
286755
335441
207480
434158
78559
913985
656190
228312
760652
202303
797925
99325
684947
275880
737249
873060
519763
156993
623893
156955
88709
14679
782979
27330
453648
233572
643801
223217
312316
901240
402131
283342
115456
772895
319418
923342
388837
412433
717504
588861
423573
911723
651648
911642
114358
29718
622489
634241
415388
823864
504638
114682
423087
482661
753781
369352
702838
646154
997863
923342
168245
901871
823864
932949
100554
510721
357404
207589
966140
824887
376758
863726
942376
846186
321636
419587
537775
663007
29718
356070
891166
881329
949073
412433
402131
919325
903701
11951
956971
283690
620587
620587
861537
280173
227520
379495
531141
779697
851260
641491
74558
781893
292086
646154
684729
713630
247995
976667
392628
608990
201381
815795
891166
603919
966140
698419
319418
420020
853312
293962
88709
911723
904877
632242
628445
385115
866915
870000
866432
431859
774955
901308
866915
720738
337492
500649
379495
985839
903701
331767
344889
22988
138533
569222
247212
374907
934225
901308
720738
177457
305626
969917
918900
522551
760652
772895
283342
781893
412245
201361
651975
99516
313455
125732
901871
9167
669297
880461
464712
65635
293839
328444
298888
903654
78559
667448
370146
889365
244331
277530
138533
606795
52772
537845
729498
385115
140378
997863
210105
445796
11136
801878
495928
804614
465472
453648
682238
510866
632715
364976
926642
222569
508952
263630
499947
441070
285344
144622
94132
347555
182385
270294
156562
145840
187493
606795
114677
528273
563977
663007
866432
312316
376758
263135
354753
151226
519763
640827
918900
321636
53661
185924
667448
144622
465472
453648
198309
145840
334446
99325
654432
723761
726337
219046
203686
925352
917525
102017
344889
971608
856528
74101
487711
441581
244331
829747
356070
304022
901308
341279
985839
118216
626659
880191
876863
926642
254876
379845
311342
982619
935657
3317
166048
725396
73469
83883
318059
737249
9167
108956
602033
468171
369352
173311
131018
145935
203686
788608
934225
178970
569222
60722
306722
403175
408030
917625
737586
267151
717504
318059
765178
606795
746261
420227
654432
646536
62300
569222
914587
496321
323006
588568
276390
313652
858014
723761
283342
151226
224299
65635
556605
636786
293962
83883
3183
167515
408030
100894
980603
370146
388837
682238
588861
292086
917444
337492
544656
778947
636786
723761
3221
887768
394450
634241
764524
934225
321636
199814
394560
465472
880191
828193
270294
702806
130489
321636
311342
543908
331767
713630
115456
831175
99485
162782
227520
613554
973187
757580
149730
702838
641491
957866
969917
643801
556605
394450
880894
61492
215175
229409
11136
887902
636404
402950
313049
804614
163033
887768
131018
362305
949073
828285
723761
167515
939387
727783
411308
710088
646536
969640
553356
921707
937084
449851
335441
942376
632715
514852
550404
146338
195110
845799
713630
402950
869473
108956
78559
541466
988793
537775
138533
608102
772109
3183
698419
781117
823864
466343
309437
277530
150376
457149
860431
566602
44463
906410
60184
443626
295742
760652
720738
645294
144622
185979
27679
503146
760652
198309
131018
154949
374475
190040
404811
956440
657058
193435
223217
537845
737249
911723
14733
44463
887768
204879
924592
380164
456621
513706
61040
344889
210105
60722
828193
187493
449851
1570
636460
797925
671965
400514
746035
218251
121496
545223
880461
263545
986209
207760
589942
719198
619242
853312
804614
689728
980603
316333
913985
978562
133263
2624
904536
856528
198309
150376
318237
103583
339812
921707
674103
73274
11951
267151
906410
20292
490914
626659
982836
925352
74111
279283
727783
280979
974436
388837
829747
394560
36019
918900
980603
307378
203686
201361
671965
380164
247212
241048
370342
626598
946199
923728
453648
710088
267811
468535
572592
247824
831435
603919
500649
83883
921707
998806
286439
178970
3317
636205
210856
550404
374475
772187
764524
805802
815234
403175
992449
908194
280979
99516
643801
828193
760652
116074
667066
613554
997863
740746
385115
101134
140378
903701
543908
34049
408014
804614
925352
828193
986209
671965
566602
198309
710088
213603
990867
556478
698419
394815
891945
942376
542425
403175
505618
106511
329755
416222
609525
108956
620587
923342
369720
283690
222569
441581
208185
828285
456621
203941
723716
858014
140378
173311
3183
249219
922887
620587
727252
901308
689332
154949
31050
401006
935657
423573
285344
754510
887902
508952
727252
903701
615268
434158
766336
130943
462236
257703
642054
356053
711500
757580
453557
2302
956440
379845
17132
504638
578438
280173
914587
589942
846031
828285
190040
667448
555012
531141
515420
2736
761330
441581
14803
726337
61040
720738
658796
441581
598427
22988
154949
580057
34049
204879
496321
463201
62299
623412
689332
136957
698419
514852
669297
267811
385237
766003
667448
323006
719198
643801
937084
306722
904201
249219
171964
87296
465472
571460
233572
598427
877727
690741
443905
735283
559224
775793
801878
845799
67050
283342
167289
359089
637771
247995
105624
412534
34958
76650
62299
727783
114358
636205
714583
167515
73469
917170
223217
52199
215175
101134
27679
761330
846031
495928
547841
990867
966140
45449
175745
844051
921707
982836
101134
853312
504638
270294
682238
56187
118216
20292
138533
321636
3317
149730
258598
27465
904186
11061
87296
323950
453648
988362
918900
921707
133263
309437
853312
720929
616097
140378
438999
846031
998806
145935
303465
741797
213603
765178
617590
717504
801878
728447
903654
286755
505618
655634
106511
482661
788222
78559
145840
702838
636404
173311
381416
3086
628752
512490
380164
934225
916295
533659
544656
347147
545223
903654
723716
856528
178907
14733
2624
747237
166048
114358
203686
549983
244198
666516
22988
400345
971091
434158
381060
381416
53661
801406
822730
123343
880461
569222
599967
123343
316333
275880
926642
556398
25836
87296
911723
880084
267811
114358
713641
918900
168245
946378
457149
210105
145229
217826
891166
270294
601690
227520
514852
307378
306722
603670
74111
903128
519763
270303
637771
52772
249219
9446
171836
484854
550404
822730
17132
78559
468535
468171
504638
891549
115000
492391
443905
735283
942376
306722
828193
636205
537845
319418
891945
276390
108956
167289
323006
275880
820446
693727
145935
88709
923728
902851
215175
394560
11136
900424
591720
556478
923342
453557
364976
702806
971091
318237
465472
806055
166048
913985
213603
775793
781117
199814
916052
62299
956971
354753
917741
151226
141508
45449
611878
921707
588861
53308
717504
725396
312316
656414
369720
880084
628752
46648
210856
739961
957866
103583
9446
975878
78559
542425
828756
934225
817801
394815
351064
249219
969640
408992
917444
436563
130489
411308
465472
922887
684947
765178
140378
589942
822730
270294
215270
239434
469575
19624
557374
185979
89644
457983
362305
423573
415388
642054
370068
31847
547841
816699
105624
403175
789458
784288
420227
609525
779697
655621
556398
379845
645294
918900
171836
60722
154949
103583
663007
42047
666516
636786
658079
412433
201361
441070
949073
238949
885161
626598
305626
646536
559224
669297
170293
863787
950119
279283
541148
903597
313652
658079
408992
408030
162782
394450
187493
217826
103583
880894
239434
222021
942376
217660
942376
851260
463394
17132
976667
87296
56187
545223
628752
880461
539527
267482
210856
32655
31847
667575
982619
543908
441070
536659
623942
392189
482661
136957
524881
815795
74111
307378
392189
609525
667575
747237
412433
463201
571460
503146
667575
720929
339812
459454
324952
903128
518903
982836
923342
518903
522043
806633
140378
804614
628752
462236
125732
175745
806055
1
219046
259584
400514
788674
369720
801878
339812
669365
903597
628445
984154
627754
567007
858014
737586
328444
636205
735283
828285
74558
52199
765178
376758
53661
145840
259584
574171
445796
626354
891549
563977
860431
992449
218251
901871
170293
178458
114016
62300
500649
924592
599967
632715
328444
222021
61492
130943
358575
123343
325300
636786
108956
684729
873060
220415
545223
808652
713641
901240
537660
503821
988793
11951
27465
808161
859193
688330
713630
260939
411308
615344
541466
379845
636205
693727
468535
67050
381060
739961
741797
393318
514852
657058
921707
563977
247995
636460
31050
127687
156993
685493
9446
261999
449851
942224
22032
845799
423573
99516
626354
468171
193435
356070
11951
651648
53661
828756
420020
788919
655621
114358
916637
747237
932949
797925
313049
150376
866432
99485
626598
190028
60184
168245
247212
766336
949073
824270
667575
392628
831435
942224
817248
99516
528273
746261
956440
442874
323950
559224
789458
166048
259584
619242
831175
613554
726337
442017
636460
820446
905073
669297
851507
873060
405978
457983
46648
312316
636460
772109
490914
368938
557374
901871
115000
228312
547841
632242
904201
942224
247824
381060
344889
368938
903127
374907
656795
145935
563977
190028
490914
978562
988362
178907
710088
363495
381416
828756
522043
490914
671965
259630
916295
667448
911723
380164
46648
723761
292086
705067
229409
561622
917625
72287
381416
717504
685493
173311
56187
156562
193348
658796
539527
96600
403175
867099
908194
255028
140797
729498
969640
190040
636404
572805
99485
123343
982619
569222
643801
3317
921707
257703
921707
440882
935657
986027
651301
163033
735283
374475
312316
710088
443626
656795
824887
764524
601872
759814
545223
171836
817248
805802
415388
921707
923342
76650
54008
974436
513706
757580
512490
710088
74558
877063
495928
370621
286755
881329
657058
934225
14679
351064
903127
1
88709
969640
173161
131018
178907
557374
309437
11061
131669
313049
572592
754371
505618
829741
319418
337492
392189
904536
114016
363495
711500
956971
103583
288953
667575
392628
347263
550404
634241
258598
490914
151226
642054
712671
583894
906837
270294
394450
630812
518903
400514
275880
714583
729498
114016
689728
815795
466343
815795
53661
698419
806633
11951
57082
797925
951274
964010
198309
739961
115456
3317
116074
930903
381060
318059
861537
419587
541148
198309
530947
116074
442874
932949
914587
513706
752823
979903
583894
571460
340713
519763
457149
547957
561622
628668
684729
325627
846186
210856
846031
904877
459454
53308
494886
356070
656414
643801
201361
32655
919325
105624
488889
353062
392189
241048
213603
494886
626659
218251
36019
645294
667009
906837
280173
227382
598427
682238
259584
544391
201381
904228
917525
379845
442017
710088
94132
381416
341279
202303
655634
198309
356070
153304
667448
989240
420227
636205
465472
956971
812240
155194
978562
788919
319418
408992
99325
318237
370342
702806
11061
709891
457149
674103
726337
617590
402950
263630
415388
208185
31847
946378
752232
611878
381416
261999
966140
475252
971262
155194
184148
311342
633474
690741
52772
644892
78559
161234
228312
279283
9446
792317
423424
743481
239434
210105
170293
951587
917625
354753
617590
601690
492391
766003
636460
644892
966140
479032
863726
822911
185979
971262
572592
636404
636460
866915
596731
254876
4517
877727
505618
989240
52772
904877
656414
247995
3183
370146
182385
917741
146338
667575
880191
508952
374475
156955
628752
357404
279283
904536
824887
724781
74101
295015
725396
228312
487495
340713
145840
998806
468535
545223
611878
719198
358575
971262
56187
345680
512490
202303
522043
146338
286439
2302
45449
3086
241048
787506
881329
917625
973709
559224
762137
549983
388837
846186
34049
848866
877063
324952
487495
187493
640827
415388
877727
423573
73274
468535
182385
224299
153304
388837
388837
578438
503821
636460
190040
316333
891166
901308
781117
331767
609525
880894
365969
130484
344162
116378
381416
52199
541466
645294
596731
914587
270294
611297
140378
466343
812240
828193
62299
495928
531141
606795
260691
524881
917170
773553
690741
163033
134382
566602
817801
120624
151226
134382
877727
178458
764524
772109
651975
608990
459454
903701
615359
412245
636404
658079
458162
468535
743481
440882
210105
498828
101134
774612
728447
572592
723716
27679
824270
580057
344162
103583
394450
369720
53661
468171
775793
774955
633474
723716
29718
873060
802542
185979
96080
96600
323006
906410
917625
114677
466343
789458
889365
18166
504638
146338
992449
984154
556398
370621
394815
320724
658796
318237
286439
341046
190028
393983
606795
620587
114358
72287
846031
223217
442874
611878
536659
711500
725690
344162
215270
359089
604473
942224
207760
133263
385115
325300
131018
433666
801208
3086
603670
163033
789458
723716
754510
561622
503146
667448
303465
323950
114358
774612
828756
720929
31050
359089
402950
684947
603919
67050
903128
628668
193348
362305
88709
215175
939387
89644
976667
131018
880191
217660
720929
746261
934225
939387
528273
621607
775793
956440
544391
370342
394560
975878
233572
636460
500987
782979
656795
341418
233572
772895
91232
276390
917741
870000
31050
201361
408030
442017
293839
358575
773300
557379
881329
412534
877063
344162
331767
259630
646536
873060
658079
725232
735283
563977
244331
130489
379495
354753
467558
889365
178907
381416
267811
179830
134382
901308
642054
881329
216167
250489
195110
828765
146338
608102
74558
201381
247995
156955
803814
651975
249219
228312
616097
201361
630389
516495
441581
917170
312316
904201
479032
656414
801878
593976
313652
684729
11136
344889
130943
347630
611743
469575
689728
247995
488889
902851
829747
655621
685410
980603
258197
713641
623893
209962
634241
223217
161936
329755
844768
33810
173166
514684
295015
389393
270303
151226
106829
381416
510721
394450
725232
753781
99516
375444
357404
753781
385237
840047
805802
642054
398500
370068
956971
787506
727252
405978
907924
166401
611743
797925
334446
487711
362305
178458
515851
646536
623010
280979
971091
817248
589942
636205
917741
241048
500649
802542
866915
917170
229409
803814
31847
590800
156955
828193
828193
168245
381416
130489
863787
255759
106829
873060
911642
591415
752823
572592
440882
222569
313049
356070
723716
304022
636404
153195
293839
815234
356053
512490
651975
911642
974436
711500
442017
260691
381060
145229
846031
31050
522043
906837
774612
901871
312316
62299
969640
130484
423087
453870
295742
259584
314250
766336
628668
589942
667448
903654
615344
911723
288953
115000
920488
306722
556398
724781
948907
797297
522551
583894
591415
341279
860431
846364
247824
133263
772187
408030
815795
325300
215270
470178
445796
702838
885161
447904
973324
636404
512490
359089
233572
667009
400345
671965
743481
400345
537775
626659
178907
224299
946378
611878
60722
903701
739442
617590
14803
719095
877727
667009
684729
750171
52199
311342
177462
758013
951587
1
62299
598427
285344
603919
732438
946705
204879
201361
187493
334446
881329
48607
632715
61040
867099
620303
2736
651975
416222
522043
817248
19624
671965
859193
503821
556478
604473
194713
753781
689728
14733
141508
567007
874228
917525
173311
1570
989240
891945
389393
772187
445796
189593
578438
711500
851507
563977
359263
457149
74558
433666
499947
22988
656190
925352
306722
165080
199814
27465
440882
716089
17132
298888
969213
11061
887768
420020
801208
571841
293962
690741
874228
986209
636205
31847
415388
753554
561622
161234
241048
740746
404811
510866
267811
156955
572592
107098
416222
295015
25422
702806
94132
969640
492391
560294
161936
602033
658796
846364
608990
620587
784288
374475
364548
368938
1570
441581
191737
293962
628668
788919
195110
537775
544391
723716
190040
513706
782979
705067
905073
94132
512490
233572
725396
746261
9167
863787
655621
239434
685213
917741
317468
891549
743481
656414
83883
957866
488889
375444
783196
727444
969917
275880
646536
63510
839263
982836
317468
542425
358575
499947
636786
402131
907924
905073
193348
163033
604473
27679
752232
453557
334446
468171
56187
194713
216167
737586
457149
73274
989240
693727
684947
19624
636205
566602
187493
846186
588568
583894
62300
543908
250489
810019
423087
772187
488889
537775
510866
642054
405978
667575
134382
65635
393318
922887
651301
690741
417397
173311
34049
772109
193348
87296
891778
508952
363495
572805
463201
574171
998806
78559
828756
632242
685213
916016
247995
247212
829747
163033
345680
378995
107098
918900
557374
522043
725690
881329
516495
885161
802542
432031
904536
740746
797297
36010
411308
140797
654432
874228
462236
891549
74101
866915
973187
829741
301640
608990
966140
25422
401006
563977
314250
53230
190028
623893
863726
191737
541466
312316
292086
108956
177457
11061
948907
364548
746035
145840
125732
906837
223217
980264
219046
467558
100554
885161
285344
611878
917170
656190
515851
341279
685410
163033
759814
31847
667575
788674
828718
603919
385115
626598
772895
588861
622489
199814
765178
293839
153195
114358
782979
401006
887768
285374
463201
654432
359089
911356
261999
347555
115456
48607
443905
746261
921707
223217
209962
669297
728447
420227
89644
553356
369720
903654
630389
636404
328444
103583
973187
160078
334446
876863
725396
467558
982836
702806
496321
29718
902247
753781
560294
515851
369720
65635
904228
765178
514852
887902
505618
574171
752305
901308
202303
18166
716089
754510
870000
443626
433102
78559
420227
521157
764524
29718
603028
2736
227520
903597
445796
341279
52772
812240
522551
547957
335441
863787
739961
873060
626659
739442
247824
916295
563988
463394
578438
44463
630812
401006
921707
880191
831435
791169
863726
831175
479032
816191
316333
463394
956971
32655
359089
229409
808161
545223
851507
14733
655621
171836
823864
267151
713641
656190
984154
285374
141508
4422
563977
877063
127687
637771
667448
844768
375444
286755
615359
937084
156993
558993
746035
765178
626659
347147
468171
285344
935934
784288
393983
267811
587982
956971
772632
775793
260939
252828
34049
831435
261999
9446
331767
318059
496176
688924
204879
727252
163033
866432
753781
2624
438999
33810
330878
52772
727444
178458
651975
737586
939387
856528
829741
118216
543908
674103
258197
752232
921707
667066
682238
280173
599967
91232
189593
423424
118216
330878
842537
839889
583894
969640
503146
331767
808652
533659
102017
593976
432031
63510
385115
133263
365969
412433
114358
865734
263630
906410
974436
926642
760652
453648
441581
394560
162782
970848
727252
988362
411189
657058
63510
100554
747237
561622
868340
267482
4862
739961
956971
863787
87296
150376
307378
601788
442874
156562
747237
145229
620303
400345
926642
131018
673968
822911
604473
779697
603919
508952
283690
14803
479032
633474
693870
255028
347263
285374
626659
628668
203686
753781
939387
946199
492851
717504
404811
633567
457983
840047
902851
593976
173161
926642
630389
688330
503146
463394
792317
604473
52772
583894
822730
998806
626659
641491
247824
543908
966140
618931
986209
844768
906837
161704
712671
145229
20292
307378
603670
828193
279283
557374
358566
822241
544391
925352
727252
74558
846186
339812
227520
914587
173311
772187
902247
820446
654835
323950
150376
280173
499948
797297
447904
656414
992449
401006
401006
587804
57082
408992
74111
934551
4422
492391
667575
863726
313049
443905
881329
408014
549983
815795
580057
27330
60722
655634
711500
757580
646154
806633
263135
500649
762137
279283
986027
887768
667066
908194
976667
851507
19624
815795
9446
316333
946705
303465
828285
787345
656190
553356
309437
91232
114358
571841
140378
161704
824270
374907
210856
442017
658796
911642
903127
145935
669297
10881
324952
295742
379135
100894
369720
140378
492851
599967
714583
286755
375444
1
277530
48607
831435
876863
42430
60184
391659
161704
258598
270294
337492
301640
916052
657058
467558
458162
788608
599967
946147
636460
99304
405978
405978
723761
549983
822911
880084
924877
591415
651648
563988
306722
457983
270303
479032
41480
889365
4422
917444
901871
698763
316355
293839
539527
408014
536659
618931
880191
986209
412534
598427
100554
818862
277530
144622
772895
293962
651975
672381
42430
969917
415388
496176
632242
142285
420227
19624
185924
510721
196843
2736
727252
556478
637771
654432
980264
513706
258197
144622
168245
547957
201037
923400
120624
851507
25740
305626
153304
313652
626598
14803
498828
99485
911356
78559
702806
156993
285344
261999
96600
464712
370621
370146
969917
89644
956440
102017
91232
537775
201381
114682
880084
863787
655634
359089
765178
846031
356053
173161
496321
179830
48607
510721
545223
815234
979903
969640
442017
573018
295742
980603
17132
408030
73274
394450
904186
533659
756064
314250
323006
876863
14679
3221
258598
918900
833223
623942
374907
320724
106829
131256
906410
347147
596417
669297
556398
982619
171964
797925
182385
250489
611878
401006
394560
596731
60184
754510
603670
772187
746035
656190
889365
778947
19624
817248
522551
419840
757580
844768
325300
482661
453648
789458
951274
516495
889365
14733
140378
116074
537845
190040
420227
316355
542425
136957
490914
196843
494886
753781
544656
689332
728558
285374
812240
906410
651301
321636
146338
752305
514852
370146
408014
726337
201381
904877
223217
756064
863787
522043
440882
379495
285344
25836
914587
20292
453870
227382
908194
950119
946378
29718
561622
572592
358575
397230
159857
656414
145935
831435
812240
67050
385237
877727
14803
616097
791169
732438
211523
3221
76650
839263
419587
364548
973324
587982
193435
804614
911356
412534
956971
23481
22025
950119
971091
149730
301640
524881
391659
412534
772187
537775
144622
433666
976667
997863
33810
637771
34958
591720
939387
295015
685410
154949
772109
646017
131018
667575
975878
216167
161704
292086
392189
52199
726337
318237
423087
260691
765178
649042
166401
939387
201037
99325
939387
803310
831435
741797
115000
303465
916295
971608
261020
228312
649042
45449
726104
154949
61210
23481
617590
388837
118216
276390
880191
267482
587982
644402
364548
210856
667066
436563
278971
705067
277530
101134
775793
654432
831175
705067
754510
222569
365969
457983
739442
667009
469575
87296
801878
623893
229409
829741
153195
318059
787345
259584
988793
919325
17132
627754
599967
727252
863787
313652
728447
824887
433666
420227
52772
846364
99325
178458
247495
335441
588568
334446
247212
267811
344889
542425
4517
9446
528273
114016
130489
347147
385115
189593
312316
815234
900424
305626
930903
11136
926642
708397
215270
723716
729498
620587
667009
980603
239434
130943
709891
702806
881329
608990
950491
845799
239434
559224
868340
713641
229409
904201
359263
471074
714583
839263
984154
114677
628445
950491
829747
222569
828193
817801
868340
27465
252828
258598
412534
601690
306722
603919
155194
803814
347555
311342
247495
20292
182385
761330
591720
389393
516495
483826
494886
985167
419840
9167
651301
465472
539527
571841
67050
980603
247212
3317
100554
244331
433102
267811
737586
22025
723761
178458
4422
636460
257703
291513
412433
372339
14679
313652
762137
165080
808652
141508
571740
601911
227520
741797
420273
620303
263135
420020
394450
252828
25740
411189
400514
693870
100554
860431
47028
423376
563988
904877
891549
56187
716089
203941
166048
572592
685493
166369
630812
74101
488889
746261
914587
959595
135890
279283
41480
720929
462236
781117
630389
866915
357404
202647
74558
155194
611297
692677
379135
76650
591720
258598
685213
973709
323818
270303
901240
309552
142285
956440
946705
464712
917625
636460
666516
381060
530947
719095
720738
419840
306722
3086
939387
604426
56187
295742
844768
107098
803814
505618
743481
880349
325627
337492
525142
27330
468535
247824
46648
788674
729498
101134
516495
591720
693870
988793
651648
198309
280979
971608
411308
787506
515420
379495
873060
655621
816191
815234
645294
121496
917170
628445
385237
381416
447904
372339
946199
969213
801878
224299
379495
949073
531141
496176
549983
948907
505618
801208
573018
463394
964010
228312
423573
225702
904877
354753
106511
712671
201037
521157
415388
488889
222569
244331
464712
494886
564518
393983
539527
720929
62299
357404
3317
959595
153195
313652
611119
816191
279283
397230
415388
3317
185924
442017
815234
787345
500987
440882
419840
254876
523473
758013
447904
685213
761330
256592
567007
443905
611878
255802
729498
62299
856528
971091
628752
47028
604473
787506
335441
99516
822911
231229
828765
787345
752341
737586
165811
992449
41480
76104
145830
153195
839263
285374
263545
220415
120624
756064
626659
740611
293839
922887
723761
555080
708397
419840
627754
405978
405978
131018
606795
420020
935657
457983
19624
32655
173166
374907
99516
806055
150376
656414
823864
263135
916052
922887
249219
860108
339344
615268
720738
739961
445245
114677
187493
420020
787345
99325
408014
194713
712671
402950
229409
778947
746035
462895
623010
408030
321636
415388
613554
913985
702806
150376
344162
304022
369720
453648
571740
370621
689332
868340
891778
822911
495928
729498
469575
42047
487495
263630
19624
880461
611743
829747
285374
149824
973187
615359
774612
656190
22025
823864
922887
381416
684729
136744
423424
688924
844768
136957
185979
617590
781117
657058
463394
445796
702591
583894
714583
780491
255802
916016
417397
833223
725690
207760
839495
853312
729498
487495
846364
550404
175745
604426
633567
544656
463201
816191
436563
442017
411308
866915
364976
445245
726104
345997
178458
916052
950119
656795
54845
125732
307378
293962
772895
496176
199814
313652
285374
551221
766003
19624
453557
913985
239434
537845
998806
844768
698763
806633
859193
261020
165811
615268
667009
693870
319294
293962
412094
40406
725232
885161
698419
496176
626598
31050
46747
747237
727252
215270
166048
33810
946378
818862
495928
510721
364548
656190
154949
632715
372339
839263
255028
651648
787506
750171
369352
553356
822730
737586
103583
199814
9167
114677
891166
566602
851260
904877
689728
772109
447904
740746
370342
411308
626598
65268
828765
867099
244331
508952
917625
632242
101134
303465
404811
220415
2624
702838
656190
465472
743481
792317
758013
956971
803310
519130
27465
209962
32655
522551
842537
812240
539527
959595
309552
171964
750171
601872
385237
99304
178458
518903
709263
130484
3221
550404
449851
737246
190028
822241
831175
522551
467586
901308
787400
118689
615344
436563
293962
979903
363495
601872
942224
957866
903701
979903
441070
787400
712671
89644
623010
525142
420273
571460
545223
103583
602033
19624
153304
651648
451412
255759
