979227
618939
86030
124858
406597
805550
320902
828518
621916
713701
53122
177698
536664
570237
922744
172855
644319
794660
102997
909019
403668
622571
52418
32658
553518
755168
935652
653324
338319
368482
627074
161788
853414
337166
925264
4583
260298
989126
919388
417321
722512
856403
471573
746937
164145
369378
602755
691111
8019
291378
809570
765081
33402
897758
187174
134022
368773
226664
306516
313355
32335
606012
948763
582898
805137
582331
431918
477371
274820
84442
267468
556011
352708
378443
289377
347796
549265
622533
428759
774066
644079
97707
899952
454628
423100
243371
521475
770281
627072
836551
654634
370059
812293
370432
273133
859115
230206
993443
267348
36091
761770
201858
724497
117579
248615
104810
889663
626968
285588
810003
739099
927506
53244
374490
274245
922649
889487
158817
261624
514992
322071
446497
143028
670191
264732
9905
289199
191497
805768
682530
732470
204858
546446
526030
645251
429366
576102
378735
711025
901142
188278
512280
623147
493379
799711
592239
630913
902697
556351
195261
873175
141661
170328
444224
781191
871893
627673
704250
218405
156783
163763
409682
628980
535106
315880
457735
50859
884533
31895
8304
814394
776860
114287
627612
248918
207639
833958
211046
300675
292015
186972
482226
96952
353853
970259
441295
843058
456107
237458
223777
619155
583390
336753
674312
675697
775436
74729
696114
592053
268029
90261
562167
704382
640554
884883
839328
518259
314970
814902
62437
874791
299824
520458
31202
246752
760144
956337
970035
664954
248464
41356
77987
541213
13786
100865
366243
679275
422250
433788
481270
423871
909616
149668
745544
235484
912376
552298
783698
396939
570211
801576
998579
78541
56674
334434
355393
130205
162984
219966
868430
406828
406755
552075
379615
75941
221265
8831
534643
99649
119566
480090
619469
29476
884664
237786
556899
844456
160379
811551
490513
231681
142658
911223
787113
37779
412029
566368
786055
329192
439851
51922
531789
252901
380160
234576
902974
354733
494371
189415
133369
689168
825996
106301
975572
270004
736466
453783
532471
911482
37481
929776
385623
45979
86304
444877
613408
325343
827990
900172
592780
434226
857397
126574
936295
410722
694573
690056
940456
686771
434123
374668
862221
889785
354348
406697
765651
604098
859092
273950
606999
598559
401362
532754
89055
149020
28743
652674
328057
719455
513643
514358
371428
728792
207518
968038
346491
597308
189625
663445
138719
142448
654537
686757
48598
429619
825714
374679
851176
625123
680775
170445
65838
398710
997254
901328
912216
670752
947491
693305
164287
83775
478305
229464
367656
804826
692476
565634
46823
393523
631390
168274
205303
967611
745588
542341
418412
296383
930586
259108
860995
902211
940288
607645
145593
275379
759837
59312
621685
434978
14306
995621
81456
551026
57825
663162
370784
965670
182384
372309
982461
462111
769031
227483
83179
363390
955602
672323
545541
148388
637908
402307
570909
578412
906522
973202
168031
465735
141761
363103
430689
858241
125765
216222
196663
388145
21328
679815
894849
926505
772265
207005
277764
829622
435085
176175
597412
33101
815780
883557
165839
578474
174490
414000
263411
202249
486510
466567
998123
420521
474608
65945
249262
322551
307468
907955
78621
11310
260231
664993
394070
748161
744017
866316
626380
907252
978816
740684
577717
617002
845083
796596
980698
495855
9081
230150
737224
884973
376112
274630
663251
921069
365823
209328
281725
768097
341958
495646
269510
691792
66027
38367
396873
646341
309695
975839
767428
196743
672081
265218
620457
288771
460401
118375
816776
25480
80755
135473
971862
148316
99871
511310
231009
126287
685177
244750
109698
393132
435786
590987
529974
162427
707524
111663
342792
309063
458029
770026
657180
697762
419733
534057
919871
246498
53896
306018
271723
896313
100864
702252
50530
489264
137413
375377
151908
926572
58943
372414
438397
428709
213927
84521
442050
474100
955518
670814
54949
845707
427460
865368
179810
35583
767050
879505
858905
228005
853389
784372
8433
583704
971209
262418
330981
264884
481051
847113
766219
460385
456619
356915
652040
406567
158125
348027
375508
22379
955597
864136
496844
393556
727858
110740
269115
722899
395208
987996
426656
784229
653715
630061
896129
535567
730494
272050
384397
239739
498888
118463
464834
207742
286332
9888
404292
755680
205177
269360
369906
308087
328216
181359
714591
420424
635575
772501
237853
938862
258782
592122
731658
934428
203375
790345
443283
302921
47502
194669
700041
741550
791611
468367
637725
301491
358633
275265
872056
614764
63539
398693
338177
40643
841237
244076
669353
554534
685843
31928
645567
11721
67396
643382
997809
420659
119967
470337
266258
225102
736524
747122
668251
911510
287912
661206
305968
164285
648831
846211
171822
691931
278858
830034
830264
944771
716108
924274
319429
925526
685814
505718
205533
503605
402690
759539
465343
931449
986503
621532
720351
229071
272164
560325
318989
17950
498454
788852
600691
632946
765820
790180
319679
790171
627472
338712
117050
379403
323022
655406
300283
476948
736074
451532
698787
80125
92383
742763
532204
136472
627460
797160
323216
232185
426202
568859
939123
273676
796375
848485
322850
406093
23989
112398
73191
300257
328118
916226
244256
506917
727873
131083
368855
523801
605356
270291
271390
632715
790585
51655
182381
916621
380920
286963
102142
693431
77299
664171
728108
938851
122213
186975
308129
82629
809823
439897
931803
284825
166672
168360
718649
753558
569420
514951
454232
260870
961029
887859
326585
585936
599248
25017
739358
25401
525524
366601
923627
767116
885984
63845
764170
325459
447670
728900
260865
506978
597330
193120
593625
924688
208191
561669
339752
717004
981933
277746
353676
352955
50558
764364
874519
497084
808647
303054
476600
244425
556158
517653
163232
256293
314204
708722
950650
359555
711830
300492
282447
321614
670368
895326
547196
724634
72339
738840
305966
881260
929550
621790
793151
966584
919317
267559
472940
346072
861292
939352
243000
212677
316733
350879
796753
79428
406598
395844
513296
766216
991491
281273
10525
149125
805479
680324
24893
194521
166617
207656
514435
976456
610830
914668
372672
786871
401299
775008
350985
196113
724769
42048
555288
514475
258332
751688
139194
995136
824467
369951
55686
232815
888064
77291
508308
369295
230857
439762
68767
882024
784025
597778
481997
289409
792562
412838
769815
554452
256106
828633
115558
120428
348929
66547
960987
513151
813095
557507
586942
874030
987844
343780
11910
590575
670501
644503
79339
499158
830366
528541
772849
921885
491423
745254
640766
608794
549106
225497
127676
944115
97925
531509
723932
645130
210361
942447
22795
634002
403373
400118
180807
621036
852015
611926
412754
144463
536778
217439
481374
555702
594944
275828
64644
156834
175053
264078
13978
206982
144499
853544
576951
157775
227240
817213
812694
526791
175154
809045
373299
783979
370765
521410
110411
140884
765457
496744
82170
822167
915051
208957
918347
898169
986940
833178
815855
167642
457904
952774
166161
160031
113674
886061
244684
531449
535229
919096
913035
193932
768791
665581
472600
187014
588799
14933
180638
420386
668512
256540
585311
538093
520367
758130
878627
230034
910279
573909
344173
196965
138703
317751
348810
23733
179539
84427
933380
281169
457688
753068
687215
97170
992540
939661
165700
2524
853117
82680
254672
749165
755274
724089
225528
181434
451922
646816
492378
958651
286406
314759
334386
758432
437586
447101
54319
272322
561477
426061
9018
571695
352800
273174
266310
261122
874241
387688
630409
980367
869598
233734
254238
127793
980068
77408
487090
380694
885101
853720
997197
687771
499908
323478
834689
861379
38877
369316
14067
882700
200738
964672
156110
968738
101392
954945
932133
319739
357252
772354
214228
496942
298075
707187
670703
107902
884622
676606
559225
518006
947202
561656
706103
865997
997864
810266
512684
856685
669938
91471
733312
129525
925636
385633
39187
657717
607881
618707
245415
6784
404045
994289
126452
455731
878540
890841
697152
650615
152954
473388
441112
269039
902790
11630
588399
371766
825651
685477
604700
12820
102290
339518
146470
888726
697334
57240
71545
881773
943732
939573
728505
972950
780533
401202
605945
155854
91833
169055
521755
367253
614289
365023
148845
977136
745590
524799
764987
823688
935023
259404
290572
740352
804562
887561
387
93258
416998
506739
117547
841706
310582
954833
24653
539704
356488
154363
31039
253013
549837
221478
631472
690207
635966
623479
422634
116738
620393
188072
547791
608305
461814
640692
13837
31831
32568
364334
245886
895553
137238
794097
244685
626758
699756
476521
251229
415751
936532
438053
425467
160726
20722
97320
400341
476819
150373
348387
586462
49716
41858
961498
869673
784302
166123
151426
998382
460135
950558
592344
495053
944478
13297
745007
677074
229921
899198
423480
788350
925289
511651
324972
423099
884036
650159
215832
534745
136586
404378
534700
289390
666479
840613
967016
55200
729440
368950
649781
990546
892274
18509
362380
197075
542421
362658
900122
377994
398849
710472
444052
740304
520170
5306
544304
746325
240394
331712
654053
831522
175887
115727
254944
315157
172884
17517
196158
163970
456980
828842
716488
911829
336301
594340
506615
875835
269651
144318
461825
491537
731415
332794
524468
781149
109708
782812
885156
459211
406593
128338
887280
371017
522016
165941
917523
10161
570315
156239
98216
83361
161600
125852
990874
361475
729295
843156
224023
38895
55822
743220
602532
918227
615143
688889
177537
573983
131938
361544
575305
895016
933764
575726
321210
365432
534241
282148
986490
893780
594108
125914
336789
937847
16946
480801
971195
545789
951978
325297
295773
49163
276427
648360
938072
707082
181804
322672
514618
293134
585452
654060
980344
656186
755429
509428
884349
134874
142803
392782
947624
407146
846677
228375
946537
323521
903972
804182
384631
6171
295848
937109
367768
115162
925284
135249
683654
701806
447447
629362
266667
606533
39388
629014
910791
650423
78091
858381
811793
41623
669641
489123
297609
618858
731845
930982
999099
995688
614598
555857
968849
250697
143488
338210
160435
842187
926276
389863
177589
922572
430595
733615
828011
913925
275655
899962
180605
529670
909443
545284
60041
468430
841318
811137
478979
368279
833951
315052
32565
705604
773893
188374
328823
592708
862828
49141
956257
997619
638750
661974
959687
143375
143607
794813
498655
830313
955700
623715
30147
523749
4551
571728
97770
909912
720985
705805
791242
682876
621842
758161
377372
89702
487468
954344
674935
855332
70509
340508
90736
186961
393450
373187
92920
149798
966377
740709
901872
575754
87236
942926
471534
908024
291513
656925
108128
403277
324481
718784
767048
853265
705949
42477
506461
985381
730131
447986
752601
940688
816525
788945
355063
2469
151767
526735
276680
225819
645182
414204
46885
616507
252387
914873
521049
240325
882960
430927
714899
270701
784132
669654
621187
943409
497394
171725
8862
5681
39980
468652
885788
267065
845600
598074
18522
519665
453060
912631
681334
306356
359758
873076
960086
831245
797372
910071
660925
488002
439934
860313
830803
195842
737262
851120
429010
233246
985193
891956
461432
773724
342616
431238
17032
79941
705314
404545
82406
876902
452527
616196
371871
208871
672280
272770
46443
7450
714630
453471
463969
97383
301754
87682
817462
559334
594307
872106
837578
168718
865377
353400
776224
22060
610579
224577
824716
681461
759948
313976
476463
491739
120267
741380
231751
590849
961876
736668
67241
324073
906444
362648
525944
250387
304973
437968
153026
437364
181601
460730
687764
670269
995459
118226
402219
524180
315194
713439
655242
739512
499562
113771
843912
856080
165419
374724
752672
810461
487411
523340
644646
554179
556213
376315
36388
841517
335825
370048
75020
350059
153295
423256
617518
932222
368590
163711
923550
868825
724748
640521
482603
789312
934425
290985
446932
242170
982098
248999
610488
313128
454361
358746
248072
464431
813781
207138
388231
384183
9135
321636
729140
518282
730297
810518
253415
692412
336974
697703
269653
885506
12552
878630
149019
133844
915795
638559
582199
36742
84477
750998
903590
317529
89879
123871
892290
910214
935050
17094
753243
443207
471036
203934
294384
505908
111291
128413
424766
912166
968831
711926
371610
665269
11673
686328
772170
119813
314917
59449
778655
453965
964526
765452
721915
73920
247691
721701
584517
786822
665037
608379
175330
381017
742631
21091
514936
189826
393093
122430
366872
914485
732387
113806
501929
891272
647871
742904
287328
225676
206789
694333
73245
957583
777103
31333
217778
199230
413127
296999
784043
185825
438185
717897
759398
501523
242721
143413
840652
772308
943068
782081
585675
526363
188434
555464
983676
670908
207418
939401
281437
37191
810363
738685
179200
838458
884742
404030
122268
471017
67360
182203
710465
822371
238162
952671
402631
411349
911612
755042
643513
376072
638284
291195
526412
720051
271288
537033
53063
401163
747502
414576
344017
794231
848542
329444
808741
629192
263334
424966
879787
606611
225259
377091
834872
170015
210190
39434
639206
436658
368160
714056
293643
989365
747703
278172
458463
788356
985643
487268
410724
192751
597328
238153
885280
253349
39860
899992
365131
776068
853258
567300
323548
46045
164067
263723
499375
353122
257738
568152
614147
362007
227869
199073
160864
768757
224598
736051
854798
936560
474709
310149
111033
985663
907949
728395
111232
475314
602790
775282
215276
680046
79645
936877
160383
55323
186181
644213
21803
666595
309310
483226
537905
606550
744469
961888
1247
470502
190475
880072
875258
408165
807449
241891
231246
444472
176223
75117
94492
331638
399776
738625
905951
164203
619457
596529
176771
878415
16278
869280
901852
258249
655540
581756
47209
723392
533775
241383
136997
853185
480058
734504
500588
733625
911943
739719
826777
146369
673200
204742
22563
876907
352790
526063
131307
433124
343589
876695
874515
462784
136217
677046
382921
124849
641676
139670
964486
778838
479344
329503
803197
120787
665098
559938
335053
176089
465911
231067
451863
271890
569929
447409
876557
24184
875066
381518
955126
685058
466483
421421
265857
636853
132331
373984
439725
83791
609707
721962
71993
783793
42476
75414
540743
891326
332196
630087
596929
208371
901859
512417
312886
334652
968907
515571
321188
693739
914127
306288
321369
923472
343465
364451
467283
649167
636570
874789
259836
456300
881885
458044
128313
680431
917975
793484
996831
892424
986900
410931
262654
84773
114892
350272
202213
101352
88178
325833
747826
650578
602149
774392
38453
991053
632970
675808
520505
984694
898849
24652
554394
392285
314567
894783
620242
777038
159826
605616
949859
297420
281750
727323
545345
336841
307558
486050
781266
85465
689665
862366
441193
425881
605445
872709
730467
854670
706280
505195
372865
150636
375694
148268
108681
567047
996301
73811
471288
213220
193722
523893
579759
533507
570162
454594
801889
275818
808401
897586
317676
232681
370589
961593
116062
413523
696043
583844
95786
411260
197254
383072
271416
333690
981747
595610
207061
430924
262798
146027
626879
567315
586077
755532
506502
873837
546969
965513
925943
70778
512700
432230
416350
632156
885060
76163
483892
47859
329307
870008
243544
624796
520650
702524
254417
860477
264188
401784
685120
90259
257454
546103
99702
671093
782991
891149
123653
246886
693109
403208
671007
567342
78717
122002
434293
551836
361940
256834
746053
88563
89886
825596
815066
472028
247792
737208
546668
936944
406901
739930
668007
180030
286087
48230
278799
765412
394103
339814
370221
47200
314421
177271
257005
746294
821460
182049
218792
392404
876589
896563
779566
347156
855804
514742
237366
932096
532158
293156
339414
888883
993698
859802
827755
567673
185893
728332
784886
53711
405241
590784
815714
204430
166695
616370
940315
475637
914054
182429
411471
274527
216469
826573
580166
828731
887438
673186
512347
323774
689083
55300
550644
164831
824876
549867
484353
511793
587162
249192
152098
821884
914548
817862
37833
734612
647820
476344
152881
378753
332968
850616
791026
154851
469279
892802
933533
991318
766789
306435
87385
658027
822710
374888
80983
550238
82733
185536
380563
302667
833332
770192
4584
397307
119777
57505
889444
994542
153363
102531
71246
86617
693950
61588
81700
10780
677663
279514
660237
918793
530072
526932
578874
855153
789652
480742
354801
616682
66486
501177
943882
12262
1960
971274
929860
280981
968511
354007
187122
405706
798967
197061
723115
863942
232845
270150
429105
400718
424207
887187
250902
85823
42173
47789
130588
96963
844616
793440
521726
857667
770519
157435
965185
931429
932418
131056
80585
407054
286200
84690
535826
857353
222327
283125
132870
435627
839730
112060
112807
811082
714673
987289
36536
140131
496338
45300
342073
115133
611306
763184
426439
559210
388244
165368
339255
397126
148831
941632
50922
96532
276799
128489
955281
158165
382815
996201
888927
834928
474631
528332
539567
199488
37602
536747
133427
30277
421361
470697
382753
865726
334994
508454
870063
711601
346297
785381
172134
66987
427301
792829
212514
573097
792838
226313
824468
447362
638996
986971
366775
422622
592147
538714
573085
578980
761741
791805
501876
246507
270199
18447
742403
512226
882233
65421
447370
936171
187351
250256
782558
556805
216551
338157
569447
676670
122312
527324
588732
868500
785957
153082
605796
464907
253386
969707
397448
896146
942359
293967
930053
903884
532494
658842
150780
726939
226705
427520
542651
367588
434197
132665
666269
815181
10613
911023
879169
101441
732322
837913
429588
146740
360028
732975
700315
437286
577428
308612
848150
977547
596834
734820
541830
587653
259074
730603
309290
233570
445252
683677
977024
984161
218743
573989
563436
552455
637341
152119
895503
456605
265414
130996
899303
214791
516810
921161
285226
679754
331379
613794
290797
291842
389245
94484
350322
139495
920139
994337
720532
539153
807918
159928
595225
528116
269411
7584
463339
976979
267749
367548
40263
813971
570860
900852
361379
5211
628596
259308
911346
946556
113824
419509
661752
410513
875018
452365
957249
714930
914363
521436
129080
397402
452645
76446
705893
951447
996579
863022
598191
513403
549850
319135
776200
997917
606628
12684
618952
925662
40367
519103
897229
714947
994838
904442
346658
445028
167784
123155
709981
195140
533649
967310
743429
510717
809053
42956
904058
567661
895206
217238
631645
719819
350710
316873
675886
413363
454870
881916
140469
855876
487154
349306
466255
650525
738762
582432
115809
552578
142710
167979
49531
384154
955554
523232
760772
463354
997025
216518
919834
320398
621946
910437
86786
120160
575103
111074
955429
659852
332088
433689
218890
145552
835021
38064
13490
307665
553858
201255
939881
435056
219981
345545
120435
676191
133181
86582
280
445077
21755
944812
130874
149376
501146
566524
556809
339941
82659
494181
155544
697322
13941
637540
690330
507421
102286
587139
393921
915002
332
867758
68948
80800
353379
772326
518472
479725
728828
495575
72357
603040
65865
877336
459539
777044
819978
594822
195573
530762
77304
241268
606205
354117
449663
502771
457915
587134
367948
532880
296645
342801
675819
393670
216275
298896
537011
239701
297614
622719
340993
840034
347395
609737
208496
213810
124579
146990
230490
277679
731931
395571
189733
364191
519129
945553
979611
929542
855574
788007
266649
688727
909543
570355
312241
789432
949504
333510
645749
348566
927021
151116
444844
370794
636498
974562
492669
771059
109430
159682
378382
819482
522074
659386
707550
526321
652381
28478
308339
577005
357271
676002
907898
198590
751464
383196
735509
487543
886043
375899
196079
206189
195550
237503
833664
611012
125378
46516
462951
460046
22449
166002
609196
180398
148387
324230
29975
97886
269668
417527
243742
503562
108891
306152
727544
336835
253326
809218
507170
108778
661912
297474
161443
642712
231948
60364
966757
614583
826556
855555
774976
16406
806376
757287
374690
855915
105329
822651
155222
903148
416533
299062
283150
959670
474510
951480
161964
510881
771847
722014
318251
597393
993225
618654
156213
657373
324508
634921
147922
903560
123805
613003
355889
890911
720028
999716
486941
191514
570763
159953
972136
579477
240202
760958
118761
872786
760768
774133
514411
151902
71910
285130
695657
7591
782235
663954
500748
569263
371148
820526
216025
595830
626285
203163
650765
174102
795623
874187
257579
866753
711995
634151
127361
313199
756950
59524
839217
131011
476415
643502
605988
452397
591449
371052
203116
759670
645163
196284
173836
158335
943964
387931
764777
573893
523090
507471
165377
226495
287313
893372
815055
163241
481880
739161
599480
281215
291345
965749
600060
519005
167834
199588
300520
601067
492033
180148
185911
373477
831150
210694
352212
612154
925116
91702
632593
559283
990427
851590
575087
89287
176979
914043
429646
9559
784040
531823
760937
650971
718645
635207
536891
944894
820128
497840
251393
950305
583796
944994
78986
868230
896156
251816
676411
104078
15735
253000
408461
287482
327519
904161
220095
545450
161428
763759
38295
77900
539816
311677
317551
689996
660760
925432
182389
124901
445282
46621
860409
231538
890180
468398
65301
557444
816490
822756
910
718929
168147
834765
631676
312522
562156
451255
665478
127748
572751
271141
363368
325946
854396
393317
750506
276484
587331
324263
474670
451127
7608
803554
206327
533442
761653
598658
394193
399406
218997
666464
670096
628178
460496
434166
345283
140412
984838
449074
486979
681063
228406
239806
233091
883282
75054
88093
144626
463990
222313
530215
254408
954349
274317
946993
464212
726827
414227
353837
467244
597992
394560
392061
472825
846566
751389
149324
547483
266624
385510
725326
999983
340047
555101
731718
311154
458590
25089
554627
31508
174837
247457
278944
775264
254824
912949
57080
810975
878167
239085
651215
722804
923589
799989
368990
872967
207123
484823
171526
753522
732133
930954
747884
537844
314859
600180
927111
892979
658669
627435
212406
368519
880229
620213
387515
306427
743182
724488
119678
456850
810307
309357
227673
686991
120991
748889
724948
423982
399925
301287
799309
452070
844417
453346
50491
127982
315283
393078
321841
347167
852261
771187
70997
907840
286343
823513
46964
874787
77301
317765
569731
199034
891816
417152
824104
670527
900707
120373
890215
677201
407639
25218
65554
117011
140651
404408
607620
572465
269179
273362
637246
168421
375599
713726
14155
861269
140398
550250
226873
716095
272537
224926
124424
106995
489544
970881
127402
172658
844267
492929
167592
389983
851727
81507
886977
361474
90132
211575
676636
232495
212597
143616
25274
205861
968600
612032
32394
618588
956318
132260
305738
686552
686244
787264
407189
459944
627412
279439
986803
489049
48567
445912
712168
437851
752898
926412
55169
874932
41571
82538
759070
429825
322448
460888
458212
431865
113366
618816
974945
894799
863976
429048
336528
420885
540784
734447
999023
260305
531220
839419
350881
32804
758694
276749
955195
766659
600820
139833
455750
305508
343802
235869
527786
596352
979852
811588
783937
223219
593130
398142
918966
245825
70516
780538
274910
140283
486226
224324
452104
361248
111753
11263
503319
34663
762072
609732
573747
427872
949620
984402
602952
486469
941389
61246
434098
832783
424166
868367
200703
485202
347569
157166
145795
966902
304725
918499
915188
889963
518559
199733
618430
638228
505978
250996
190569
773274
767772
695747
436854
553087
648279
47518
797826
71080
780892
388127
787598
254205
316039
719969
686589
734186
428946
988144
404939
843433
314307
859204
846141
783856
482509
751075
379676
267089
241913
746340
650864
514559
342710
975935
567068
838990
884134
103179
914906
894179
449075
821521
786133
337944
603942
66866
15288
23558
787357
496160
142167
292931
826094
184628
875282
600896
741185
187301
403857
14402
985837
932891
824038
824438
637209
815477
350731
341382
684350
178147
44850
45683
969690
185713
15901
535000
118335
14237
462724
38321
71953
913794
48939
124207
691042
620724
140373
564603
518638
747800
286616
702765
631327
706060
411057
291147
848843
980011
172151
724366
432160
395183
247130
752906
314883
467859
32396
428435
741091
971975
929692
614804
862773
522033
440097
489142
948561
922171
298171
102639
52490
428463
262081
915771
786650
448318
933788
408879
989624
661208
233416
913398
870962
421399
982851
851375
596484
887046
243466
137520
424921
980508
555274
471742
349696
459443
244511
652109
881997
64246
306569
78970
352925
266230
406193
160688
45747
799327
58603
559239
697723
509103
291050
148942
539685
617446
249962
958774
395210
364673
678811
128888
838648
497875
484121
876555
650426
482870
227144
855540
499007
32630
188317
424382
617520
486967
8124
11940
428765
392338
247377
279776
213626
976032
318083
133129
213585
304078
930630
414455
220579
181464
104488
541615
234010
985721
481460
878300
420671
447098
941798
351713
17562
643429
803500
207457
708884
83968
845632
753875
131908
580398
770141
520924
849709
827009
365850
974600
591122
828043
560900
661793
463483
15948
336361
207670
965351
853226
367981
331287
675458
132826
768300
783338
124562
127563
542695
715672
653189
292243
596794
312087
666232
682995
627946
991747
938515
411675
450063
265368
16014
500363
675713
236725
328560
261678
11270
952807
20241
996185
992501
457528
549770
732708
395470
772077
985843
613149
385078
821602
243250
892120
802743
689132
433173
876054
852982
384495
850869
499092
614696
522834
898898
167945
899823
963928
199635
41453
595678
905653
300543
737732
347141
509037
378047
621256
776769
732649
585564
451037
501114
171753
653129
397365
74465
639430
149720
932058
890663
307754
271002
499215
411664
482587
99722
566617
409480
872047
634014
711315
120571
525387
258025
253772
963106
794047
268448
250194
355335
268064
580879
989480
989251
335057
43579
260597
244548
296760
441994
361605
417281
640819
715522
977635
344083
747672
103406
215607
331574
463734
743321
890591
117680
779553
463622
759859
279911
803850
430147
987605
583641
931365
578982
837284
927304
742515
31727
78052
301662
490520
963973
746013
960349
122228
335714
496727
610996
465520
383498
955935
487773
98733
518834
773680
950536
167009
441373
154046
789407
690536
564963
509219
392739
577088
51805
920723
265431
860379
270844
387280
85801
355462
13666
530763
504338
565557
380538
428320
119707
924160
617640
365846
962790
252296
413722
994544
369358
228827
71838
284380
320428
859026
406069
924306
70994
815876
569150
841274
597147
565876
509289
507357
506103
366724
322905
851416
467239
61917
596240
120105
594593
255841
311224
363323
108258
993216
899174
694014
683415
625825
10262
529562
888101
504277
142018
653684
114953
56464
40936
78237
635140
595152
170528
534282
121100
662637
825809
458720
138803
949420
781026
174707
756667
309599
604156
817925
922030
301762
497348
676230
388328
894238
293872
556728
547943
983310
833703
131149
150325
133465
920751
337606
682940
838137
567818
328278
953694
260864
391935
923925
116380
696871
50735
291475
600425
59197
476526
967458
299774
54100
872422
146637
454857
798721
816450
570269
436924
890368
241707
355168
459070
938511
222501
848334
94930
111142
410248
394171
714267
799978
73453
721060
875620
245704
999347
308643
976901
179054
794226
125923
652083
339190
434710
463704
216352
230253
773419
397098
581892
442998
902830
775207
527343
220387
245323
439310
326575
740432
441148
692584
83675
164316
208915
668791
91233
21074
758211
239338
176798
764889
365270
552708
466044
380208
414428
659693
384606
408708
465752
85416
283816
753550
380435
120438
244890
377241
619722
96448
71916
789463
301291
865486
717457
961377
999266
71570
388641
512802
140960
137208
57533
83311
184450
716462
474246
545282
386817
723603
428589
937141
825213
344550
594786
55819
27723
870189
190603
959282
697200
272676
346342
287145
322602
22277
822162
529635
824694
506889
501890
525399
437075
111720
433077
862071
320697
666017
763909
622073
148434
91886
131678
884871
738316
693006
524425
25392
764185
66511
147866
982358
52186
805401
390774
259806
998158
618926
848323
446990
220055
915884
282237
204778
775637
132996
865625
627840
245665
816395
82286
61399
828620
546077
208820
37943
49872
845003
648684
494808
707957
440399
20800
975888
633331
664208
522076
217733
912236
735388
767223
328579
39082
185047
472896
758024
181778
99429
367132
162110
581079
27386
469264
644484
728163
974356
478017
326548
339128
509592
344618
944537
899156
122548
186236
256667
636852
586017
24520
640829
161213
10318
710971
773936
996611
564409
423585
980124
559100
794708
214213
290632
259122
954629
980204
145675
670093
612675
557701
40364
552963
799316
764565
727603
217782
441264
929369
60074
856383
370810
391256
407217
953739
481239
223258
109137
129364
633579
354911
378090
538221
925912
812481
616386
217284
525974
348407
496500
660739
93530
520732
66770
358586
595099
703853
649472
441919
584740
81940
214303
697562
374791
826800
673604
606640
348002
847997
961935
646436
656389
609487
672620
187038
977500
613717
267642
864980
263842
572643
668055
73555
311524
222795
744337
614594
636928
388445
891179
559968
968229
761967
477614
291392
744848
395096
241670
549495
178563
247987
690038
715160
239448
183406
649919
46228
926742
663075
302918
16937
708250
475998
896411
63669
304772
87534
556686
377088
698887
560122
651496
363652
408816
698377
467144
170047
783527
686015
697893
642223
918160
503511
515144
376245
94410
756692
708110
357627
18009
972483
69761
739445
292862
550887
8033
109070
450375
552256
766235
313240
865069
270346
339883
87847
390912
960678
873933
244117
801612
540113
525888
561675
805595
310269
903193
399234
901559
212163
138288
726753
158607
986741
389267
404449
523692
754281
652875
62343
835808
359515
406812
94674
728521
311532
888554
899820
578875
23803
227787
206608
431910
240818
854587
26249
106851
729822
99212
539893
671288
745270
901110
675659
239863
463296
370833
510170
283489
44035
877886
134573
970728
945951
392212
692387
701550
455454
890407
61484
129786
562192
974595
449287
681514
730214
743211
101729
790435
80729
334772
778843
115412
435864
568318
237474
916493
510092
286341
601152
786075
564407
998537
213984
59854
317893
504400
34598
356232
264450
588012
885677
155746
503052
968286
968285
75525
801744
642832
951394
834701
280415
334277
113224
139590
561492
587141
389366
55934
272313
934736
841599
313922
680138
263644
712493
98878
3806
962129
754404
300409
6174
932309
390971
65126
660692
660210
613229
790525
4317
9037
209113
127349
112458
749437
490299
581650
769814
813959
904557
529933
816451
280682
832827
756930
428116
318241
687137
620319
770809
719439
995061
781240
374044
78584
180182
504779
46767
776625
332708
700461
965175
185343
801713
104532
578897
916887
246914
839978
233317
615533
914969
897691
164356
801221
695416
40769
363909
173804
997554
374751
474503
90297
460345
896860
848968
599559
377249
400981
285510
753187
943915
416386
425060
642958
186666
528287
338884
678411
756190
119565
912365
463025
109949
58999
702106
865327
36230
717203
701692
321381
884705
347353
40244
123762
757910
467100
381783
372649
974181
234668
313339
729079
197035
829759
357928
870299
939606
290701
596412
849450
971196
261396
578892
468183
872948
278279
35512
646593
341724
188560
821381
67359
427193
24649
861438
325686
81492
722114
646497
304828
420148
732165
102815
301263
69204
761862
449340
378408
312008
62049
892826
747387
775164
420295
324973
356794
108354
508139
905702
768513
626361
363859
655302
458779
332616
804922
633691
985181
921023
930876
312233
421559
672132
345090
766223
55431
745922
637448
779546
769314
734814
110307
262158
814327
914452
136835
744213
84888
356825
602895
650123
498290
518490
430126
323379
174467
290249
377934
126716
510709
979947
839502
867625
560090
664984
136689
895994
356686
237415
182822
286880
651729
374455
413692
996878
905469
98765
689775
424038
340753
545546
582170
477423
75459
468700
381321
194171
573982
919295
547391
727837
769230
616523
996624
2526
71726
191854
916497
226136
852486
101587
510606
211365
815608
892675
374953
407291
590610
412522
511143
309962
55429
716508
291822
907596
60447
666628
571575
363615
118148
267868
383189
781459
856672
48428
406173
162833
834172
736031
34364
419348
629224
6515
832276
455642
12247
793298
59582
588291
441891
937192
884948
591967
628246
843682
96091
696919
911827
74820
243240
608704
929277
581643
524745
927779
103631
948052
508607
297724
905555
855979
622186
696109
414912
585486
472691
556067
559687
646182
498107
443262
666825
584406
413386
320507
887871
53260
435619
59396
148089
21062
788480
14710
439775
79767
59839
682990
776868
221318
179507
109244
946778
110151
610088
192382
151307
357877
899145
792328
459809
349775
35390
706183
78112
528915
744195
989751
666553
720269
751173
490641
900158
977158
220408
863878
23293
224874
719029
748885
618716
994998
5045
962372
711237
145112
506641
818517
118000
643019
379861
252321
971621
604802
742254
905503
721689
437387
153752
222463
669001
546109
196994
261731
417370
698431
571978
585631
294412
350891
326204
247262
802774
795250
144075
22701
498147
606450
298626
90446
582153
924558
965586
972631
853965
417692
77035
502968
222725
334079
489258
594505
142744
662393
117637
383993
770171
130765
8615
576021
945818
741900
391654
943879
467477
52709
998943
475154
687721
342005
799998
504043
780784
15296
374251
14554
833997
85664
623353
889307
759554
458252
44911
432180
75118
235708
637981
904987
840395
479102
396174
814693
505533
410434
124823
633479
437988
225555
43739
467743
525349
628307
540456
604411
21525
773720
759623
869390
32847
164712
982758
52735
551043
38291
322117
99374
271272
593481
768800
648448
94960
803924
996111
189901
489917
622612
404644
872465
72649
322349
148321
150650
89409
528263
64582
951812
906226
456022
481364
117949
365038
967001
579644
332560
875493
603492
460534
371491
322667
4358
721333
674626
902568
354670
846627
51205
484538
763337
904200
174181
778995
499288
254570
653556
320094
845231
650809
170804
952474
433354
839933
337446
348069
701201
440169
731306
490059
690459
450598
701614
339725
491805
820031
185596
96128
729274
865796
439580
45191
634936
670017
414723
880197
160673
80166
226893
667951
45990
356842
164838
598101
824858
326950
217272
628399
470597
525937
560988
233693
246576
369510
85503
307037
206211
370482
156077
38076
186038
807325
981166
139514
938956
636998
899921
517507
146223
907592
30800
369264
724832
784440
789444
485852
448446
249260
324960
564346
279847
894286
967231
617842
6956
622045
374357
151178
49405
215678
819663
382220
474390
879118
689671
939163
750778
546691
143184
430094
783738
827702
620299
787354
804894
3626
936850
614906
136400
393917
490651
87606
899449
161793
471585
535250
19934
112487
447214
267688
323744
118432
318085
307738
38695
215579
938171
907509
574714
800356
255911
954995
252564
825735
23053
468994
338487
492191
539731
619865
183451
576701
660479
604324
924046
987071
497830
649987
474082
197449
676648
582933
190302
190695
190631
942788
483817
160833
680457
521262
913658
898476
93762
372372
575921
772421
157234
456283
856036
850026
347678
910193
849719
835113
547726
863745
871900
176726
733499
553435
419762
754312
330307
499895
910223
966816
344760
361765
281455
715261
653404
518822
781439
885485
58119
989286
612595
41308
569265
672181
357407
785719
842495
758332
780694
275902
90056
520636
114354
208983
226489
485926
387792
802881
693785
585848
164491
749069
20347
195433
403960
138331
717675
538720
927099
165152
192168
517559
427212
897090
872737
926535
599739
844766
147442
896235
359793
175826
449454
330102
723323
856192
524069
939278
422045
430473
62543
518856
903282
395120
430935
505931
389026
582030
766554
271389
674530
749007
124499
208749
104181
766297
889527
999528
206740
798427
767663
908049
798667
381178
111864
645655
761293
552952
49433
755279
596041
829239
341976
449969
206800
124427
760943
706367
560624
142754
54239
229926
677156
318574
776824
607589
937335
903067
578923
240116
423349
145771
666824
785511
149289
550759
931071
869548
879670
769990
309499
148285
520050
232254
617735
98417
434739
421857
178334
515206
695141
462911
797966
60606
596637
413183
327792
811812
688233
324727
424799
357180
499463
75611
521527
799314
988495
979058
154196
932637
891168
813795
939594
871292
171402
469714
657651
905239
267029
968381
6185
396064
877219
237319
52617
860949
211242
777562
381846
977269
300806
379793
968869
771513
117252
998718
537995
160352
969361
44333
759310
555447
148438
790808
900074
971256
576731
590265
490942
696429
557346
562697
593645
117932
500858
58917
938004
152809
221084
576430
290535
25640
405838
630789
433383
725690
859239
845022
260409
690975
599731
899122
934098
392062
902417
611190
977090
381043
790191
382030
27175
782251
98824
503971
438284
231542
423205
61690
465041
782294
40676
761514
426559
990038
52693
552390
346880
774966
277589
206561
789301
63246
652528
991807
526827
843664
161335
752628
745024
408803
160479
479744
230977
63401
505499
19506
53391
779542
591069
322645
746043
967482
257982
645582
779179
477296
654682
169341
222172
320690
169757
322764
853198
952222
9802
496328
994044
545766
233287
121292
545408
45252
505995
641483
243351
590678
938260
371664
704261
963065
885064
877783
242932
460469
583196
388344
742936
987264
681172
902326
977370
743215
374575
337687
322909
865324
786498
568638
996092
68295
789929
579597
666060
668560
886579
817226
296204
110388
736824
258428
491864
904758
827734
204854
129075
421783
577299
106351
666206
420066
454439
255398
609326
134596
368391
147109
211495
447804
256200
439363
365150
112093
115739
44467
655412
691895
119549
691400
151479
831159
598285
186283
983927
330751
863874
106969
706348
420071
664210
937347
478431
467950
399874
810728
275010
688914
816237
439458
897485
97542
544299
8165
477883
272149
982005
168425
948259
666358
288384
658712
692683
965520
881919
743812
917098
577614
453135
181010
20381
108002
624820
703892
475642
84114
423743
770793
218830
453686
171410
935858
784297
449067
760111
179410
784003
362407
461290
404437
756140
866034
423347
422277
55207
187269
826613
506870
314096
721070
612369
421586
376012
316161
788842
403996
170405
940318
377748
642117
752832
342481
139344
892345
590030
685199
755522
973315
126982
602991
342463
330002
379240
494086
420510
131748
735169
5626
801633
636622
904727
790298
428126
878973
166239
276969
423940
655315
811859
842176
626942
706267
233056
1349
559011
357303
567585
418775
694926
602904
21778
692523
831176
209718
145712
741815
222101
311099
486926
649145
250294
904241
584313
201716
830240
9730
660823
729766
435578
878110
168222
534542
110141
86067
549784
915864
630041
393369
325128
264065
920829
396754
164707
80965
587743
599773
627526
95882
323042
814974
332640
106205
405341
342482
92225
592752
616082
986508
46211
473157
275398
620958
841935
656127
320494
793952
614393
819040
634532
225060
983287
398930
10887
167120
112031
419837
509391
794676
829194
232813
737541
300365
283050
653267
990872
75776
415827
807456
522994
819446
985007
942813
970155
563206
568733
405416
974306
616799
587725
258834
327797
29035
825297
118390
770651
832734
444627
424598
994891
85180
385612
234800
913057
277937
897186
79979
957861
800602
311297
873879
644582
49519
200338
351486
172624
382989
809422
581761
90277
904769
118128
604969
604145
622445
159061
719516
162815
795492
326374
764505
798255
240057
691065
724264
961318
843016
931437
746225
504581
945028
96564
318171
985363
792077
241804
276837
26186
251967
890294
489777
909429
993715
653315
293807
182683
150654
826543
876603
349014
49451
658500
993790
118053
779429
688866
802467
460898
700047
723488
621760
278809
229085
586449
118280
860344
76765
612059
633933
501592
783302
594612
667518
708065
829016
637811
816887
100688
436293
191211
636685
11679
979233
887241
49384
772772
912707
757213
208231
967828
447653
67919
167932
543739
432491
628504
622091
769830
786413
232278
925757
817826
374385
249546
90607
706128
876717
300725
288868
805969
421382
973660
142237
266209
337391
801840
788366
837660
472184
531692
618288
755097
915540
243875
64949
778427
147883
75106
861906
503516
500940
295833
409448
801343
349699
911425
466622
386146
628221
519184
261825
861364
839475
515066
435946
128042
783625
40825
259137
975087
289522
954065
705280
766059
694055
735249
103904
255749
696019
784817
740633
211522
885099
708670
840890
518729
62732
62567
572441
705997
111595
163236
834256
836623
19504
308187
791418
296282
437923
319491
671959
931908
379992
48999
329937
227711
172639
617243
438729
842559
720121
515776
361414
833333
983694
812031
240120
632856
436964
497186
860849
679872
492256
824681
776032
47852
776149
44267
830131
929760
774261
128845
134564
896322
938433
389895
710519
503203
364753
568072
223845
642859
921434
646761
728841
779978
996279
275543
357726
444718
748833
867506
505340
628332
294820
511010
181821
815577
326845
87769
828571
202022
768022
201989
643949
609162
479300
345912
588310
612437
481632
658893
562744
83458
388991
723830
957930
454943
867160
457329
658680
132958
944169
746485
404952
126043
118675
356430
434482
671666
922972
83478
902934
773309
42941
897587
167411
799541
993382
338572
99520
353683
160852
540314
960233
155001
63483
170163
926800
853419
498815
61952
664290
316898
467062
92277
642627
892262
671478
845599
676875
925112
570782
58165
573611
876693
379696
740550
675788
990321
141768
258464
320929
662183
270445
987617
386063
504212
554450
905185
678394
152849
816601
356096
689686
293438
994128
92915
486880
493966
502489
980796
660309
392023
365328
362505
557589
511424
959820
172354
918844
979109
282708
610601
359011
73162
505453
552823
466137
997062
741118
354829
196773
926005
583244
771675
848694
438365
658234
679926
357260
493070
143905
529438
248736
453781
375565
534333
698471
254524
746915
655041
843473
704396
864390
607853
435092
339178
864447
161403
85822
957632
250464
683676
800767
43634
42259
420500
224515
526483
522422
205003
100483
541762
417162
108334
619097
124729
643973
987828
801708
12767
498762
420946
690506
245181
886982
576720
60647
15557
11901
102829
399919
591093
917492
249865
504437
582362
780443
73775
311232
149764
948102
162721
257200
284468
909470
302637
93612
395678
760141
764258
84358
341505
760246
580186
673964
421180
52036
461184
395693
827336
237945
352408
418683
149677
790604
581649
377919
272908
75523
138469
37806
202362
517473
455683
744949
414553
484092
452457
418900
492967
852600
13538
347684
589692
166721
443431
117009
563513
682920
800034
679198
855967
693454
70989
147785
889186
774495
995
602891
634116
207322
540547
453933
933896
865467
376854
826261
875114
83558
109504
259853
858363
251337
108562
69086
108553
56375
811512
630929
594629
79025
953351
873455
5577
553165
417553
33723
371104
605887
131358
751995
147966
564780
340242
513085
729573
44286
707521
301703
359234
192133
713829
415756
691172
697539
864547
895659
229766
406592
140049
448904
244590
270933
463320
335108
996686
173850
247880
905229
229812
200419
127504
814793
621699
968562
361301
452480
803797
410415
584494
734723
746385
597447
666582
228498
232321
958034
742156
954430
731366
166520
592353
850011
916769
242013
110633
308638
251998
13986
981809
679131
579473
840138
429043
67972
318685
705872
476137
194293
804340
258625
757205
654345
292727
738054
265124
942716
679666
217095
173924
258232
714981
586956
99102
788671
288400
956685
567296
218981
710656
813911
6682
796623
895197
590222
915605
496521
225368
844168
568001
373106
143122
861735
103033
667220
700344
363714
981376
600169
836854
958696
62606
839236
707275
488968
503079
276770
138987
243305
97208
22863
293875
185736
447004
167208
744253
184049
34740
838171
994918
882186
216014
607999
344950
670631
52492
62502
58641
427034
461176
437573
6683
647358
655215
90291
29519
966163
324518
579302
103740
429624
152131
590991
732334
340209
698356
235324
104337
925478
339946
565458
952288
388483
848131
365238
519773
465369
420165
886504
937290
506267
453379
777160
754275
35004
862189
717988
996240
489346
814714
771612
819252
249882
43966
662398
852571
544036
760290
192813
154473
657985
775699
22483
380104
451629
438777
629979
415313
835080
407965
438687
82420
152285
908850
1562
600612
394199
709451
438051
108727
591357
729551
827954
318161
817446
412636
790939
790
66317
113792
278175
172945
848662
782714
459172
631260
309482
694253
437931
45723
24468
113730
948344
415699
518678
995034
663623
80435
736557
387803
479476
21672
979165
385037
599896
223741
841348
750425
371697
447292
809183
483699
681267
668064
447637
69
646013
166948
370119
778322
20863
629244
160501
513029
100963
714912
446023
512773
226778
984587
1405
939982
951469
325855
238961
783164
463643
194682
140822
227744
972132
371216
575331
674731
72276
839148
151818
570600
492081
454449
916972
898447
343697
562659
616353
333930
23987
744564
458786
584680
220042
380114
367944
303652
51379
48722
226586
500200
346086
692599
474749
603597
257942
806270
605788
973639
507243
719508
867445
633089
290755
698188
225562
167212
173323
806392
673133
29451
688816
913096
642706
782223
175978
284453
170631
35086
189002
623696
175296
977734
713273
162943
904084
459936
422706
269853
119254
898779
287580
681318
330444
84164
938109
560627
407526
621422
484738
982976
911009
17902
390731
457852
992333
715363
700753
313066
282505
332635
983499
838877
980770
554105
676388
578094
742160
748234
888879
381509
684370
283638
617377
699769
35913
31296
740063
286768
800267
278521
349928
126364
943465
877792
508616
831228
316798
396207
923917
469787
508879
735893
475117
258311
893643
345740
33911
267090
988762
617534
955852
183713
15084
248830
481116
838866
762892
692711
715031
234886
164437
94494
17986
460421
292431
53680
861746
480757
560408
358200
833312
127879
34834
675507
887475
470888
646789
718474
341747
275592
991768
787533
911976
324702
969298
940281
116991
563571
765776
201972
900478
922412
771696
708339
777312
601844
536840
343805
301369
930792
859947
623061
659423
104035
811598
953896
90273
380196
347324
921744
569621
35666
205902
252500
73871
131933
815082
608240
949236
37083
98377
687874
934891
751704
601055
131436
337265
367560
271181
81280
187008
246645
79868
653433
494461
966394
17271
543677
784473
303122
539480
931363
572708
592769
872342
974194
178949
976473
748404
461791
811717
618381
90621
146545
621373
271456
122328
612733
758186
388867
591207
345269
888059
379898
292025
703830
283537
60620
8832
4164
697534
772868
800061
348364
864282
881110
32618
530758
37571
241353
458484
956723
317309
410153
649647
912445
634791
523759
262825
984910
83740
952791
649476
287214
860894
822775
48475
924343
397779
522270
306438
649938
254128
431485
587309
707938
653548
692937
771715
284641
569898
1400
367289
817995
728420
881958
112972
202650
365159
838252
436681
187357
213560
239218
671113
63746
786211
484724
289580
306712
261303
589328
582925
705936
776966
853636
463997
216503
720560
787932
291807
324520
458355
575250
918040
273098
6984
50632
472758
968047
409651
98262
796909
369604
250929
332802
561439
773564
331936
965759
132195
97034
564096
159812
847091
660936
509210
545617
951580
573035
310257
174991
485169
901083
678070
959502
111842
907628
899479
370405
519523
908991
77598
754151
360869
882738
415802
585330
218931
898186
306601
769819
124381
650031
121136
607698
69185
451915
823936
759715
695475
164908
47593
484776
885595
739065
593041
581200
388490
646822
810373
910708
168615
244813
671117
288363
331423
542303
375296
703055
947852
592055
433454
456278
997105
780221
286039
194908
262231
442533
149386
122779
950152
714069
350792
716352
828708
755075
14395
730316
120668
717843
377414
651368
408598
467861
572825
204315
285310
567192
771470
340471
981807
552420
994825
296217
665154
699039
384388
788774
827344
204721
468148
724932
311756
182808
749753
363564
693048
33881
847809
529226
363912
299948
737483
120179
3824
577518
280327
176117
16
706577
32770
370845
374617
354954
115322
551620
885073
422493
408315
476944
301024
714414
182723
204393
21837
165226
970443
146294
710202
328355
700521
549861
944450
788984
109988
680467
260498
956893
917932
464173
372591
356901
644765
29994
315039
376399
414503
803807
922075
908877
480064
654382
793549
232633
327044
959794
625847
791605
768334
758721
417860
444545
51662
485218
111275
186158
892753
554684
936395
684067
498499
662438
479902
839753
776341
543650
547760
31835
552389
526089
947587
373718
388556
348920
670261
292655
812990
737503
424733
634695
957982
601202
119735
23589
867113
135553
147687
520547
917970
279683
610314
717612
540832
741902
436107
31770
179296
914277
84673
770306
857062
720240
69917
515565
678006
181076
445949
52347
746363
248045
648132
815375
379140
827270
968104
431406
822499
903459
276829
386583
973686
6721
153765
112521
8450
558365
762744
861462
793467
602894
24672
941794
981846
176676
792228
395615
189578
282440
793328
414111
751116
79324
938632
806939
862451
980005
692296
245410
683010
395042
172541
934318
785667
625220
29109
942322
686259
785014
180384
292283
208898
109167
929317
258678
125759
324647
112863
707131
285782
362886
274147
833782
750969
163173
584937
573066
544145
296489
456144
546004
730007
767359
892296
421594
848847
317157
758340
540228
547305
337729
253151
769267
639456
431582
788807
533827
288982
173792
240982
511695
807768
381249
998509
746848
642782
829846
763016
3150
337912
275058
632265
233711
818668
668160
705073
725458
635620
926536
464826
866047
599755
998340
369480
395785
627219
463270
144003
400903
637656
283343
132157
470391
187797
605182
126725
471626
687731
978485
549704
597538
635784
532083
309192
895684
222093
335395
727174
187279
111440
575241
276051
89037
94992
930863
613992
527672
684253
700436
762032
493844
718122
889136
464180
508441
900984
580852
693751
6513
338495
171952
279096
947612
76331
989660
910610
756600
353730
630098
493234
888084
985028
364537
511947
711757
455096
401812
620987
695408
977459
517391
955451
269196
481225
598112
257387
554937
61824
38190
979833
493138
151715
882238
1753
151457
822795
947798
744683
45558
678210
444207
488687
571529
598970
473991
710758
667934
726516
10088
510912
867632
750940
153479
948140
588435
631286
824044
316957
523316
257714
59983
12371
542551
710229
97581
543332
210043
192480
255063
143816
312566
820675
369291
812510
549400
453838
596811
125636
24759
674
340318
819067
354940
478901
382693
970368
300536
948544
211202
429741
930720
143209
153089
561701
434793
951053
916898
676120
120855
520026
246928
701412
140241
767724
384581
255745
164631
991843
534411
825576
748562
24159
95401
618414
502820
915834
830414
229542
691057
200093
337519
905773
829914
457417
711358
357624
447720
907386
469716
268853
78515
618110
790529
688840
559447
959693
8985
162973
410828
52484
646650
19835
690028
124192
894702
230003
926577
504521
229326
769610
853212
205415
32549
105295
639306
498727
648886
404379
800069
886539
596443
134676
874016
260941
9490
782993
157093
914134
724308
217915
140112
598734
283291
436718
188236
361022
738834
882934
669532
195858
794568
742894
937952
313919
322332
536456
751207
483063
792784
427977
156323
181071
324198
388929
294648
518546
532556
318997
781932
315386
8028
576738
983614
174508
269407
70092
77350
935677
82427
713808
598256
540539
192275
94508
841836
556410
14976
358950
807183
255941
503865
656742
610841
998056
53628
155837
448598
347394
564750
331065
349790
13498
444106
19802
802950
355025
797801
665655
6949
235564
672966
266253
745605
790281
819285
842545
930994
149684
569292
464296
544338
503975
589717
151097
361048
701210
142563
343384
469963
913365
798354
595504
335489
580078
164855
998484
330492
110616
286685
942414
998412
805132
971717
591953
82758
139483
3764
798417
98089
566922
960934
322056
3559
670649
433495
415850
6401
53614
852720
174175
588737
698480
864808
491390
348458
101073
2696
813018
496533
724447
763585
95831
584730
146998
912389
894239
147583
177067
816964
176070
897836
834650
322351
143652
275899
850919
924715
192458
783704
958438
232506
358314
145416
989062
258125
440091
711747
407327
304401
56274
179837
497963
906583
753613
270013
507971
712884
658388
233500
178410
796679
508244
671087
472919
960596
949765
762358
42031
847312
495374
645426
832642
245762
702222
835829
49902
132968
209466
813554
447034
435
707467
229312
75921
990147
461762
266507
889571
727979
160376
270089
793362
524292
871422
192215
720789
379831
945137
79670
18366
449753
995959
735678
720088
500041
405455
951950
931276
118222
63528
727668
508288
151142
205245
994755
589821
155631
389835
489638
972244
567255
626298
69453
996756
545908
601800
788808
459102
468472
323171
611407
952534
249059
471659
102671
382187
334873
48255
423919
427327
701492
691324
103068
91018
653472
262122
592617
652876
218147
398509
522190
470659
170620
860908
997120
70715
333331
724561
877646
307520
146373
429023
975197
556465
198047
349164
423249
286165
350581
90385
255926
722496
887466
8984
757601
592312
741540
808920
22012
631252
852528
902558
232048
485965
55775
136984
530450
208752
528504
463512
987503
6442
354225
434212
912451
776658
369392
706109
270884
265245
356631
812362
955907
442164
959202
469378
861010
538697
874748
740410
505496
717225
637978
349960
798601
822365
902501
543563
430951
713306
491916
797613
441495
305106
312429
934149
233433
97
351263
708341
699668
556586
282439
439471
139855
537390
977834
910386
442561
845982
947551
714058
714066
28761
916941
794469
572911
377410
786828
229623
724680
779964
798900
582180
853220
537188
182575
838255
234786
353295
241995
75303
310492
354739
883172
418725
851109
807718
146612
91336
313289
21736
999305
733204
498434
87951
595601
709329
944429
230732
451858
547007
396906
667242
110850
456626
811465
678400
432433
133354
917052
829809
915442
155189
728146
871527
203965
115122
315896
821417
497677
924822
818955
211866
812399
255045
888332
506898
602611
724114
350864
316022
229719
968705
171941
406500
521617
392490
861580
267245
93186
627849
149702
375958
14112
325957
461548
551894
741420
395097
291610
185116
378050
497847
555831
173088
144294
337583
179289
64573
649506
460766
259920
320469
6710
472927
894862
852743
20324
348516
504465
947365
900738
418318
500828
513397
657961
7628
120023
39069
25661
741208
520485
817714
989333
210844
657242
551406
216154
156936
804282
964028
937508
943859
851452
46864
738867
544105
767857
389761
635773
681112
539237
853315
931831
390107
327656
816884
462370
234712
110462
597306
729546
54654
890666
556304
143204
686386
205495
52710
303317
787866
571929
226277
917308
4657
302304
644431
826019
234729
142841
809759
575706
6262
28463
825581
15926
215203
725830
466309
700811
629795
728346
418102
272959
686691
229207
424521
812009
629488
358438
880974
622919
851658
339935
77194
346879
891195
753844
708613
866714
569639
640582
760252
190361
832008
890156
834874
341867
34113
520463
125473
910292
767779
368187
368644
515614
998615
368042
776754
20710
253933
295775
743678
498519
458210
6662
374672
127766
102515
464302
308002
582755
203108
964362
332482
707455
758966
704275
643565
241358
79096
955999
504673
928230
500969
953324
114792
801758
695287
604105
48574
965201
607069
492393
928193
136444
114510
992320
447861
495647
929472
792172
258832
528908
328509
443091
961069
317145
375240
526281
447940
656852
581432
488793
31211
58738
31028
290859
515791
508048
6975
844868
633694
399569
459857
266535
867188
247688
969456
12040
85796
440163
361356
363797
800654
636276
970083
621610
620221
821074
179022
452436
143210
880523
488073
791131
597445
933317
215543
641549
973845
452051
728555
975141
82069
353541
47853
722976
689535
812827
857396
58250
686533
615399
449166
901712
43173
166940
491040
927914
371355
665384
593112
78944
53085
655991
172982
245788
819115
94689
742587
103612
294098
609320
424874
113092
830463
911254
870372
58350
596733
114292
691417
323012
617151
499406
392818
841277
667504
347572
830278
377389
257286
99529
324530
862177
230410
314439
889505
59868
377856
297872
610104
203926
756690
40712
545132
918113
931105
452621
961864
541932
988894
127020
572544
216777
587982
643149
232791
362787
18448
817018
724189
809854
140699
183241
39720
590964
738271
657246
735423
32744
352699
810873
585981
327612
614690
478745
640619
652325
357208
134559
852172
980565
364063
398300
191743
689297
541257
526647
474786
615943
980156
257542
351922
638322
899945
657686
157929
102686
979333
270276
938174
15815
978979
105216
765141
928011
729210
806127
921324
973351
376513
111492
566463
417997
912814
344164
961537
108729
187790
524644
313489
338033
849704
118629
273525
575981
956248
618594
248923
339583
728331
86920
343738
861371
752852
771088
867442
286013
968851
807210
321464
811672
106685
461179
864533
558543
177262
115376
632442
787221
621096
420589
642373
578584
778473
836274
989953
295381
805681
889639
507198
237344
386936
928198
38990
84308
638407
207623
665091
88611
792488
572011
407689
21536
91476
701943
527374
608959
467829
335480
488735
759953
643402
745101
343149
800515
990769
320868
115039
374187
215526
337495
980453
616365
103154
187964
598942
273892
53144
907417
920808
43252
623509
652018
798924
65936
831085
945079
683979
800748
72713
118764
828132
196416
46695
855674
481078
85429
567427
592184
920394
603769
905793
65111
770176
742643
440906
232430
426870
670383
649317
892679
241619
971818
665117
649642
251786
90785
330091
558567
127191
44787
884591
231930
929390
947307
943236
414369
383073
568164
30981
771664
551256
209436
956272
356284
286442
491428
509956
881729
595735
579442
212298
15743
743979
226864
363435
152473
291607
807307
360572
10829
574963
532128
278952
901165
241349
74086
252706
186685
667424
289697
511366
588184
130220
854651
944690
233206
321124
529061
32150
456896
669203
314916
903362
922888
199772
498771
957116
603226
406295
949759
369429
463407
689836
380989
235786
818800
487328
535489
239646
41076
780225
149473
689801
117031
101051
154778
44087
995607
392435
412290
48578
306077
156442
18846
507033
455176
966617
981777
673139
355468
105475
487130
450074
945892
612613
736606
866699
453994
288493
384721
972261
693372
705177
899899
268259
105810
813399
895424
939998
785553
81950
933458
223135
10500
732503
563880
345666
798899
662837
471394
990409
348061
400952
821564
44169
432365
305770
105530
32718
898694
949567
72564
874389
525067
356188
535468
717184
398035
25839
583464
892632
865966
581267
180187
417037
370622
481280
305789
869030
43528
68947
353897
583401
226417
653538
510204
451460
642701
69432
616880
77135
498484
761876
514388
70598
340126
422418
59186
745583
709455
145949
358915
733493
407428
188966
995512
545286
150098
254432
343028
122129
394430
488158
525776
639527
843029
766493
99046
939819
808520
684552
872632
286150
982777
994362
279513
474137
58373
513394
263983
661438
610862
207475
152213
810492
635478
933650
539788
510869
781871
655959
985475
749537
560498
5993
830270
117210
352565
362135
339160
135850
718184
544069
3733
904687
977977
293629
691804
461787
317058
928363
260188
250063
686909
719737
279435
423602
417122
643705
153522
209930
13083
23850
106598
680375
242623
925362
419983
507557
898854
370699
376989
993203
253217
570480
273302
332327
245414
754097
427831
632927
728184
708973
41242
315287
941817
639804
885420
210159
309915
355599
386800
266330
849303
622183
761196
752096
304622
687133
470870
192645
638091
961883
176739
833625
900981
957992
947414
121517
427589
274808
153761
435662
610030
715931
264922
600057
831255
359226
807191
774326
738407
991130
682882
372555
398067
768416
791837
328434
419652
357961
836835
270478
424976
766817
994280
363618
15232
54189
109773
480237
354474
26435
258169
906499
368738
421425
737549
395856
17154
245009
184923
758805
904410
279954
959588
817566
950881
87485
192150
924236
693042
816594
6154
613484
87578
494473
952050
130298
702728
901765
527776
144113
301095
463874
433850
355909
265350
763120
680662
156671
192408
273253
751449
561241
598997
395186
783680
466380
798706
810726
926945
37084
459899
395455
582877
903814
983547
780906
731670
105781
119572
152069
885922
412529
736976
693498
115111
875748
989268
53203
68805
951824
27133
544060
41442
734002
605171
826476
187642
616771
590512
568181
296210
885212
759414
162626
153745
90521
281190
320748
698535
667511
142774
529254
158510
910130
89769
755113
104841
189410
403276
979967
43379
410642
951853
157338
913327
746354
881125
381464
901772
930610
492197
994189
586822
271725
690403
229278
705781
368649
806924
681788
794541
148454
598238
109120
190717
728081
737910
508798
844600
989859
467087
211890
772020
744105
39286
298762
287143
519145
698724
984565
697504
127185
26789
226268
429199
794684
393550
691900
306779
84377
736888
659004
695907
161874
589122
608669
185818
598551
193019
822698
73281
133732
875973
861852
200229
376054
378742
875388
464505
813242
961097
290643
442464
58383
651813
841712
358407
697661
813006
644534
80499
176068
687148
5826
427504
535634
363718
478523
52507
5633
550702
563881
374068
242330
508322
539800
426404
937962
676694
823143
891065
674008
165805
630781
371497
943023
129917
84573
900578
573591
419252
288593
592410
257039
95135
291947
414203
890988
956053
44950
464025
392671
879081
310577
139523
532211
303146
138467
228602
542367
202795
637473
39437
353061
38623
289008
515800
774197
38362
341065
723865
321137
101884
741271
414118
343777
270494
223599
886608
648312
34239
978780
194230
540405
322189
875665
72352
256969
898811
226359
136661
330861
274634
399083
182726
551734
811729
961995
883776
482398
805451
346377
256212
272118
350521
559846
321233
766494
756183
134856
468680
908176
556863
699704
238432
560573
776651
206273
794452
162988
316211
429728
285862
159215
229026
257210
875091
869629
831328
309011
342774
847945
405233
657507
341228
793890
901023
533642
542834
631779
608867
407174
336608
608892
641097
665931
37978
326201
761159
48173
554187
937325
271008
53425
450081
596641
997316
334707
999033
973460
143444
598951
453724
93993
744359
284130
291250
826240
363813
624551
867573
127636
359794
957530
536337
627953
333844
598226
830579
289541
747822
44316
756695
967285
771809
706423
5441
968297
942709
990245
230063
975322
997204
33296
822099
651692
649673
923578
206320
569638
81629
876585
769970
829794
809665
939937
739766
35947
398490
761756
36153
692861
314707
883540
167156
643809
199255
991086
661143
896855
65068
852973
678414
795452
962011
797941
758032
428921
9851
797573
62790
420751
768717
151976
377993
493032
207414
804882
398541
141603
748500
903382
953228
769516
522135
210940
307872
986518
705335
793590
280885
450045
305179
386647
725508
584357
503900
832069
547533
542775
396478
525380
534927
769638
304968
58368
427972
124565
764432
34008
761518
105632
695274
256679
906306
293228
346443
836184
719204
463719
847296
699623
161722
213358
829149
287792
360930
746953
543143
141899
556323
952383
199838
928248
384164
301898
27985
372777
286108
276524
428725
941049
704129
853581
598333
310361
174543
512184
440195
164705
717452
966881
400323
426419
735924
712212
437837
201077
268808
808181
311738
250786
661944
974327
435102
370543
141225
151990
403457
977050
570647
415295
686185
342690
847565
588909
733150
196462
51989
209828
703984
410815
893144
860956
742184
391326
983230
626383
830011
297632
497832
726963
7139
999932
820553
891532
988744
446653
606453
495080
902948
528203
476828
495147
547118
97056
159070
163048
987697
582642
347940
586705
237401
308901
865191
973000
238023
631226
736710
979988
662225
825706
969270
443876
526175
619946
554895
685425
582494
57965
537324
632998
396782
592188
639997
71646
333103
690067
47784
883773
92935
962793
846058
747581
842701
829848
929908
280293
59812
386466
265195
764898
233389
651450
303444
448415
666460
588773
858383
859091
346385
814269
769302
510071
448524
117522
545017
351574
764062
266977
210711
384124
65300
646942
976549
192547
131223
183064
525295
929267
689846
709018
835192
361711
923549
207157
12318
246017
164222
40107
921752
645799
600114
18952
3443
87201
102095
378086
611818
538032
301444
580908
897531
644011
455922
217923
367599
734268
981661
897859
122126
226112
898993
56140
700595
728216
39654
572424
778374
431974
147399
279272
785863
857688
466680
812406
68294
135834
146497
654417
618194
299066
949805
640063
61482
569449
667581
253578
105840
671477
966257
739002
228048
955902
939730
237404
349930
492630
264360
508234
548215
372315
570248
483851
998301
133292
40362
998145
528150
318735
610877
941406
33812
47199
704721
290514
129003
698425
921014
164295
874228
793459
551675
351063
797535
387777
862155
276026
786496
827219
887206
196951
261750
125300
518330
376735
601320
725174
422144
852681
310710
530198
63851
106944
207002
420800
769425
683947
21177
872261
590622
497721
511300
61462
412355
911027
95350
609749
616995
335618
226752
821373
410174
642219
342270
874101
602796
543206
171600
502373
732825
81745
640680
387657
168361
41427
223685
798093
369399
283508
616449
384464
273222
368862
951187
816355
359654
409234
47669
990288
528321
958192
180171
718283
884732
510884
33007
112580
850040
932085
147131
254648
519831
167207
818391
406896
543828
233594
216703
179688
236379
935318
315632
924480
636321
287205
763985
128711
933615
36170
266659
506004
5821
471819
51935
122937
907344
969296
449942
349962
268959
686033
610052
140537
334676
758480
119915
501962
522860
710122
144515
682981
824029
150880
931534
413267
886908
259547
597935
336016
8803
208596
487845
941085
27006
872900
683385
120788
371667
369498
42393
190849
81702
127839
39808
533268
56658
191452
999303
19703
545054
93035
648023
410327
649018
530031
160839
847810
170050
717605
424362
465643
55079
810106
103819
508463
52075
603539
663482
829586
427765
119218
125684
170219
959990
932374
618418
206185
383666
590597
169354
193413
490721
973192
96513
672168
743018
72557
909522
602925
236036
755472
346575
472842
237492
418941
325792
961521
10698
851016
46105
477000
799715
782141
217041
288938
172483
640617
187684
863561
262062
328990
495915
251728
626901
623661
396763
776900
895899
363927
207618
599452
50698
69000
742352
795080
428450
520674
718417
548289
553489
761209
869382
436521
608503
354947
75753
661158
35932
970252
343455
784054
22089
523962
741777
95975
784521
155785
703039
70279
286673
207344
290005
497159
860466
841659
470139
284516
20886
881506
806608
169833
576911
999424
256714
796286
18451
401151
87677
105604
348340
416580
248531
503668
34407
592744
53281
807942
126252
68819
242539
360359
347416
244380
644051
202418
707210
799454
138400
247002
141334
568809
607850
945864
286508
257043
259223
351952
989778
110956
362229
934179
556394
963177
507723
360126
57008
691005
892194
395276
811148
627579
798770
914566
171095
953689
796128
127972
533613
263570
106763
672729
794416
999163
911885
854266
834563
334483
435647
682519
321223
133331
495682
319814
533918
956606
190297
154419
521438
909593
12177
167794
365095
260284
728547
503111
399791
686593
160043
402633
955280
927856
469000
389468
572271
82862
996049
253214
821042
926463
121549
154280
572754
560234
785937
285205
863091
353395
484639
985442
460130
601189
766159
334024
545019
794994
137891
556075
65169
538203
82059
408079
891904
82011
829375
781755
908386
673035
444036
513960
20541
150484
412929
58039
521148
380516
124500
744944
482058
809323
137479
671937
752260
347745
397598
102651
416883
739077
205602
827649
498198
390003
865540
117128
274341
343167
654432
449407
340607
961949
257798
139656
1068
216197
578202
228868
173266
11610
160804
353034
371045
696184
739580
223941
175868
790375
341672
222978
554275
148881
605933
353520
681546
77096
522646
675018
963863
702538
669366
941765
845993
220396
391107
884629
251407
383070
895509
945293
468764
514903
633099
445810
389048
721160
395862
454597
50018
264102
394148
16055
245580
952521
881533
120592
449124
769742
374694
844487
432009
800160
434287
821622
185886
473202
679319
395727
426993
612485
515882
67303
579949
3367
824106
84990
292108
477764
362109
134923
141506
911102
684900
703567
811227
890654
859461
27415
4283
153371
328058
96137
790047
804287
304798
26980
513319
778832
816225
839196
858986
697273
547028
167735
981647
989238
49749
662881
872430
746486
980898
223923
726443
417444
632600
338321
128851
8457
203773
193018
133071
891616
901232
573766
344904
832230
816944
650557
198354
283014
450790
576540
12078
336879
368658
336740
421104
565875
313719
998743
756624
810470
167297
325406
558445
611392
272395
395076
604022
682312
985544
729333
302928
75878
429664
614426
25123
535138
38642
885958
448929
567744
769869
860261
332655
547027
861358
364431
304190
146496
643763
891448
744033
916718
656448
444071
700264
147516
168107
870431
203322
822158
219681
899812
770776
248328
491014
458655
340420
369174
653069
9060
438915
336943
714145
53822
186384
156915
521374
829291
775455
288334
835565
794747
122132
955031
448718
563322
308767
76196
782521
323486
886861
990146
284669
472460
101735
37589
479641
115085
483682
580859
49526
271861
257747
168184
196543
248061
570001
436925
300650
521108
319488
982600
278383
445685
667131
47201
182337
769934
823316
460529
998055
197574
245081
755766
752390
61721
717634
371149
147780
507757
353288
894754
624202
239749
953494
213462
133270
503835
663968
99264
349823
204014
136970
953962
964417
113848
543980
55760
787783
411917
718542
616074
295143
749458
969888
477965
61518
71610
511278
958001
415107
983969
399641
723943
216792
588629
796684
841513
93691
473233
589569
1407
324588
357122
103896
462444
299320
732589
381707
